Documento gerado sob autenticação Nº IYA.520.648.QAV, disponível no endereço
http://www.ufrgs.br/autenticacao
Documento certificado eletronicamente, conforme Portaria nº
3362/2016, que institui o Sistema de Documentos Eletrônicos da UFRGS.
1/2
PORTARIA Nº             9935                  de  04/11/2019
O PRÓ-REITOR DE GESTÃO DE PESSOAS DA UNIVERSIDADE FEDERAL DO RIO GRANDE DO SUL, no
uso de suas atribuições, considerando o disposto na Portaria nº 7684, de 03 de outubro de 2016
RESOLVE
Conceder Progressão por Mérito Profissional aos servidores Técnico-Administrativos em Educação
que completaram interstício para progredir em outubro de 2019, nos termos do artigo 10-A da Lei nº 11.091,
de 12 de janeiro de 2005, e da Decisão nº 939, de 21 de novembro de 2008, do Conselho Universitário desta
Universidade, na forma da tabela a seguir.
SIAPE Nome do Servidor Classe PadrãoAnterior
Novo
Padrão Válida em
2063531 ADRIANA MARIA ARIOLI D 04 05 04/10/2019
2056800 ANA LÚCIA CELTAN D 04 05 09/10/2019
2732302 ANELISE BUENO AMBROSINI E 01 02 05/10/2019
2064144 ANGELA RUSSO D 04 05 04/10/2019
1028739 ANGELA TERESINHA DAUDT C 15 16 27/10/2019
1220459 BLÁSIO FERNANDO WENDLING D 03 04 13/10/2019
2349363 BRUNO BUENO ENGRACIO D 02 03 21/10/2019
1139896 CARLOS ALEXANDRE WENDEL E 03 04 27/10/2019
2222125 CATIELE ALVES DE SOUZA E 03 04 17/10/2019
2060247 CELESTE MARIA MULLER RITT D 04 05 01/10/2019
2064978 CHARLENE PALUDO VOOS D 04 05 14/10/2019
2341519 CÍNTIA DELFINO MACHADO D 02 03 18/10/2019
2067486 CRISTIAN VALENTI SCHENK D 04 05 18/10/2019
1744267 CRISTIANE BASSO E 04 05 10/10/2019
3045655 DANIEL SOUZA DOS SANTOS D 01 02 24/10/2019
2069268 DAVI NUNES DE ALCANTARA D 04 05 31/10/2019
2218841 ELIZETE EVALDT RODRIGUES D 03 04 01/10/2019
3698672 GIORDANO CABRAL GIANOTTI E 03 04 08/10/2019
2065154 GIULIANO MARQUES BONOTTO D 04 05 08/10/2019
1000428 HERMES FERNANDO DA SILVA PEREIRA C 15 16 08/10/2019
2065156 ISABEL SCHERER D 04 05 09/10/2019
Documento gerado sob autenticação Nº IYA.520.648.QAV, disponível no endereço
http://www.ufrgs.br/autenticacao
Documento certificado eletronicamente, conforme Portaria nº
3362/2016, que institui o Sistema de Documentos Eletrônicos da UFRGS.
2/2
SIAPE Nome do Servidor Classe PadrãoAnterior
Novo
Padrão Válida em
2065092 JORDÁRIO RECK BEHENCK E 04 05 02/10/2019
2065087 JORGE DANIEL WERLANG D 04 05 14/10/2019
2064813 JOSE FOSSATI FRITSCH E 04 05 10/10/2019
2069316 JULIANA VEIGA DE FREITAS E 04 05 29/10/2019
1069265 JULIANI MENEZES DOS REIS E 04 05 31/10/2019
2341629 LUAN DA SILVA REIS C 02 03 19/10/2019
2217534 LUCAS GREFF DIAS D 03 04 07/10/2019
2060235 LUIZ DANIEL RODRIGUES DINARTE D 04 05 01/10/2019
1693403 MANUELA KLANOVICZ FERREIRA E 07 08 01/10/2019
1697763 MARCIA ELIANE BEUST DE LIMA E 07 08 29/10/2019
1693497 MARCO ANTONIO MIRANDA RODINO D 07 08 13/10/2019
1699588 MARIA RITA JARDIM HENNIGEN E 07 08 30/10/2019
2067489 MARIANA PARANHOS DE OLIVEIRA D 04 05 23/10/2019
2571348 MARILIA CANABARRO ZORDAN E 04 05 07/10/2019
2064946 MARISLANE DE FREITAS CORRÊA E 04 05 10/10/2019
2065158 MARLISE BOCK SANTOS E 04 05 14/10/2019
1583109 MICHELE DA SILVA NIMETH RIELLA E 08 09 26/10/2019
2222036 OTAVIA TATIANA CARDOZO D 03 04 23/10/2019
1008756 PAULO BALDO D 15 16 26/10/2019
0997588 PAULO RENATO ROCHA D 15 16 01/10/2019
1937739 PRISCILA SARAIVA JACOBSEN E 05 06 03/10/2019
2073852 RICARDO SOUZA ARAUJO D 04 05 21/10/2019
2056339 ROBINSON DUARTE DE SOUZA C 04 05 15/10/2019
1125011 RONISE FERREIRA DOS SANTOS D 14 15 01/10/2019
2067839 RUBIA TASCHETTO E 04 05 18/10/2019
2342029 SIMONE MACIEL MENDONÇA D 02 03 18/10/2019
1691952 SUSANA MIRANDA DA SILVA D 07 08 01/10/2019
2225239 TATIANE DA SILVA MOTTIN E 03 04 08/10/2019
2065100 TELMA DE LOURDES DUBOIS SANTOS C 04 05 09/10/2019
2341593 THIAGO GALVÃO DA SILVA PAIM D 02 03 26/10/2019
1120674 VALDIONOR DADA DOS SANTOS D 03 04 27/10/2019
1157295 VINICIUS FERRO D 02 03 19/10/2019
1108731 WILMAR ENS D 04 05 22/10/2019
MAURÍCIO VIÉGAS DA SILVA
Pró-Reitor de Gestão de Pessoas
