Documento gerado sob autenticação Nº FOP.419.306.T7G, disponível no
endereço http://www.ufrgs.br/autenticacao
Documento certificado eletronicamente, conforme Portaria nº
3362/2016, que institui o Sistema de Documentos Eletrônicos da UFRGS.
1/14
PORTARIA Nº             6917                  de  31/07/2019
A VICE-REITORA DA UNIVERSIDADE FEDERAL DO RIO GRANDE DO SUL, no uso de suas atribuições
legais e estatutárias , considerando o disposto na Portaria nº 7678, de 30 de setembro de 2016
RESOLVE
Retificar,  por  decisão  judicial  proferida  no  Mandado  de  Segurança  Coletivo  nº  5054491-
30.2018.4.04.7100/RS, da 1ª Vara Federal de Porto Alegre, as portarias abaixo que concederam progressão ou
promoção aos servidores docentes do Magistério Superior alterando a vigência financeira conforme o que
consta na seguinte tabela. Processo nº 23078.525128/2018-11.
SIAPE Nome do Servidor PortariaAnterior
Progressão
para
Classe/Nível
Fim
Interstício
Vigência
Financeira
Anterior
Nova
Vigência
Financeira
1180953 ACIR MERCIO LOREDO SOUZA 8984/2018 D 03 30/04/2010 19/09/2018 01/05/2010
2444673 ADRIANA BOS MIKICH 3548/2019 D 03 12/02/2019 11/03/2019 13/02/2019
2887857 ADRIANA CORSETTI 3742/2019 C 02 22/12/2018 26/04/2019 23/12/2018
1731217 ADRIANA CURI AIUB CASAGRANDE 7237/2018 D 01 01/08/2018 02/09/2018 02/08/2018
1277267 ADRIANA DA SILVA THOMA 6326/2018 D 02 18/03/2018 04/05/2018 19/03/2018
2099219 ADRIANA DORFMAN 2708/2019 D 01 23/02/2019 09/03/2019 24/02/2019
1933051 ADRIANA NEUMANN DE OLIVEIRA 3853/2018 C 04 04/04/2018 30/04/2018 05/04/2018
2505189 ADRIANA ROESE RAMOS 2467/2019 C 04 24/02/2019 27/02/2019 25/02/2019
1813979 ADRIANA SIMON COITINHO 8646/2018 D 01 09/09/2018 26/09/2018 10/09/2018
1667658 ADRIANA WAGNER 1380/2019 D 02 22/12/2018 26/12/2018 23/12/2018
2078338 ADRIANE RIBEIRO ROSA 1684/2019 C 02 14/12/2018 20/12/2018 15/12/2018
2082163 ALAN ALVES BRITO 3740/2019 C 02 13/01/2019 22/03/2019 14/01/2019
2266956 ALBERTO BRACAGIOLI NETO 3305/2018 A 02 30/11/2016 16/01/2018 01/12/2016
0357092 ALBERTO MANTOVANI ABECHE 1865/2019 D 02 17/12/2018 10/01/2019 18/12/2018
1252945 ALBERTO SCOFANO MAINIERI 9443/2018 D 03 02/01/2018 01/08/2018 03/01/2018
1449297 ALCIDES SILVA DE MIRANDA 6183/2018 D 03 15/12/2017 09/03/2018 16/12/2017
1542402 ALCY RODOLFO DOS SANTOS CARRARA 8272/2018 D 01 19/06/2018 28/06/2018 20/06/2018
2693757 ALEJANDRO GERMAN FRANK 6540/2018 C 02 30/05/2018 23/06/2018 31/05/2018
2319094 ALENA CIULLA E SILVA 1690/2019 A 02 13/06/2018 18/12/2018 14/06/2018
2267430 ALEX ALEXANDRE MENGEL 8639/2018 A 02 05/01/2018 20/08/2018 06/01/2018
1278222 ALEX FERNANDO TEIXEIRA PRIMO 9977/2018 D 04 30/03/2017 10/11/2018 31/03/2017
3467254 ALEX NICHE TEIXEIRA 3477/2018 C 04 29/08/2016 29/03/2018 30/08/2016
Documento gerado sob autenticação Nº FOP.419.306.T7G, disponível no
endereço http://www.ufrgs.br/autenticacao
Documento certificado eletronicamente, conforme Portaria nº
3362/2016, que institui o Sistema de Documentos Eletrônicos da UFRGS.
2/14
SIAPE Nome do Servidor PortariaAnterior
Progressão
para
Classe/Nível
Fim
Interstício
Vigência
Financeira
Anterior
Nova
Vigência
Financeira
2434820 ALEX NOGUEIRA HAAS 10214/2018 D 02 28/10/2018 04/12/2018 29/10/2018
1218938 ALEXANDRE BELUCO 9207/2018 D 04 29/09/2018 24/10/2018 30/09/2018
1491348 ALEXANDRE DA SILVA ROCHA 8829/2018 D 03 27/03/2017 04/10/2018 28/03/2017
2352272 ALEXANDRE JOSE MACEDO 3575/2019 D 03 04/03/2019 19/03/2019 05/03/2019
1762793 ALEXANDRE LUIS BRAUN 8229/2018 D 01 11/02/2018 07/08/2018 12/02/2018
1311274 ALEXANDRE RITTER 7228/2018 D 01 07/05/2018 23/08/2018 08/05/2018
1230248 ALEXANDRE RODRIGUES PACHECO 6264/2018 D 03 05/08/2017 08/05/2018 06/08/2017
1196832 ALEXANDRE SILVA DE QUEVEDO 3278/2018 A 02 02/03/2018 26/03/2018 03/03/2018
6351016 ALEXANDRE VELLY NUNES 3608/2018 C 04 30/11/2017 21/04/2018 01/12/2017
1474739 ALFREDO ALEJANDRO GUGLIANO 9546/2018 D 04 05/10/2018 18/10/2018 06/10/2018
0997481 ALFREDO NICOLAIEWSKY 10218/2018 D 04 18/12/2017 24/11/2018 19/12/2017
2782028 ALINE LEMOS DA CUNHA DELLA LIBERA 3564/2019 D 01 06/02/2019 11/02/2019 07/02/2019
1110938 ALINE MARIAN CALLEGARO 6082/2018 A 02 15/03/2018 12/04/2018 16/03/2018
1768036 ALINE PETTER SCHNEIDER 5886/2018 D 01 01/03/2018 04/06/2018 02/03/2018
1966864 ALINE RIGON ZIMMER 7987/2018 C 04 03/09/2018 05/09/2018 04/09/2018
0357209 ALTAIR SORIA PEREIRA 8091/2018 C 03 31/12/1999 03/09/2018 01/01/2000
2270899 ÁLVARO KRÜGER RAMOS 3852/2018 A 02 10/01/2018 18/04/2018 11/01/2018
1534438 ALVARO MENEGUZZI 7319/2018 D 03 29/05/2018 01/08/2018 30/05/2018
0356920 ALVARO VIGO 1548/2019 D 04 30/12/2018 07/01/2019 31/12/2018
1831832 ALZIRA MARIA BAPTISTA LEWGOY 2957/2019 D 01 14/12/2018 27/02/2019 15/12/2018
1769465 AMADEU DE OLIVEIRA WEINMANN 3033/2018 D 01 24/02/2018 19/04/2018 25/02/2018
1355410 AMÁLIA DE FATIMA LUCENA 1683/2019 D 03 19/12/2018 11/01/2019 20/12/2018
1225491 AMARILIO VIEIRA DE MACEDO NETO 8050/2018 D 03 30/12/2010 27/08/2018 31/12/2010
2316887 ANA CAROLINA BADALOTTI PASSUELLO 8980/2018 A 02 02/06/2018 25/09/2018 03/06/2018
1921995 ANA CAROLINA SANTOS PELLEGRINI 8542/2018 C 04 22/02/2018 04/10/2018 23/02/2018
2533348 ANA CRISTINA GARCIA DIAS 6472/2018 D 03 03/07/2018 12/08/2018 04/07/2018
1934134 ANA ELÍSIA DA COSTA 6159/2018 C 04 04/04/2018 05/05/2018 05/04/2018
2126981 ANA LUIZA PAGANELLI CALDAS 8092/2018 A 02 19/05/2016 30/08/2018 20/05/2016
1217615 ANA MARGARITA LARRAÑAGA URIARTE 3854/2018 A 02 28/02/2018 20/04/2018 01/03/2018
1782262 ANA MARIA GAGEIRO 3676/2018 C 03 04/05/2014 18/04/2018 05/05/2014
2302529 ANA PAULA GONÇALVES MELLAGI 3527/2018 A 02 04/04/2018 11/04/2018 05/04/2018
1769821 ANA PAULA KIRCHHEIM 5877/2018 D 01 28/02/2018 03/04/2018 01/03/2018
2190058 ANA RIEGER SCHMIDT 7324/2018 A 02 21/01/2017 24/08/2018 22/01/2017
2323497 ANA SOLEDADE GRAEFF MARTINS 8016/2018 A 02 30/06/2018 28/08/2018 01/07/2018
1531997 ANA TAIS MARTINS PORTANOVA BARROS 8271/2018 D 03 09/07/2018 06/09/2018 10/07/2018
1893840 ANALÚCIA DANILEVICZ PEREIRA 8052/2018 C 04 09/10/2017 07/01/2018 10/10/2017
1834691 ANAMARIA KURTZ DE SOUZA WELP 1382/2019 D 01 12/01/2019 22/01/2019 13/01/2019
0353338 ANDERSON ZALEWSKI VARGAS 8677/2018 D 02 30/12/2013 27/08/2018 31/12/2013
1144057 ANDRE DOS SANTOS BALDRAIA SOUZA 9382/2018 A 02 03/10/2018 20/10/2018 04/10/2018
3347107 ANDRE IRIBURE RODRIGUES 8376/2018 D 02 14/08/2018 28/09/2018 15/08/2018
1670003 ANDRE JOAO DE SOUZA 3689/2018 D 01 18/02/2018 21/04/2018 19/02/2018
0357610 ANDRE LUIS MARTINEWSKI 8642/2018 D 03 31/12/2016 16/10/2018 01/01/2017
1079324 ANDRE LUIS THOMAS 8855/2018 D 04 10/09/2018 18/10/2018 11/09/2018
2323542 ANDREA BRACHER 8545/2018 C 04 20/03/2017 06/08/2018 21/03/2017
1959719 ANDREA CARLA BAUER 2855/2019 A 02 20/10/2018 13/02/2019 21/10/2018
1979769 ANDREA FACHEL LEAL 10099/2018 C 04 12/11/2018 28/11/2018 13/11/2018
2489405 ANDREA GABRIELA FERRARI 2797/2019 D 01 22/02/2019 19/03/2019 23/02/2019
0358546 ANDREA SOLER MACHADO 3358/2018 D 04 15/10/2017 09/04/2018 16/10/2017
2290204 ANDREA TROLLER PINTO 5938/2018 D 03 11/12/2017 15/06/2018 12/12/2017
2107396 ANDREAS KINDEL 8539/2018 D 04 31/01/2017 18/10/2018 01/02/2017
2577811 ANDREI DOS SANTOS CUNHA 6184/2018 C 02 11/03/2018 08/06/2018 12/03/2018
2084031 ANDRÉIA CARINA TURCHETTO ZOLET 3741/2019 C 02 29/01/2019 03/04/2019 30/01/2019
1662849 ANDRÉIA DALCIN 10607/2018 D 02 30/10/2018 06/12/2018 31/10/2018
1576372 ANDRÉS ERNESTO FERRARI HAINES 6642/2018 C 03 30/07/2015 28/06/2018 31/07/2015
Documento gerado sob autenticação Nº FOP.419.306.T7G, disponível no
endereço http://www.ufrgs.br/autenticacao
Documento certificado eletronicamente, conforme Portaria nº
3362/2016, que institui o Sistema de Documentos Eletrônicos da UFRGS.
3/14
SIAPE Nome do Servidor PortariaAnterior
Progressão
para
Classe/Nível
Fim
Interstício
Vigência
Financeira
Anterior
Nova
Vigência
Financeira
3688823 ANELISE BONILLA TRINDADE GERARDI 7168/2018 A 02 19/07/2018 16/08/2018 20/07/2018
2579642 ANELISE GRACIELE RAMBO 6345/2018 C 04 27/03/2018 09/05/2018 28/03/2018
1497431 ANGELA BEATRIZ BUSATO SCHEFFER 7013/2018 D 03 30/06/2017 20/08/2018 01/07/2017
6357483 ÂNGELA DE MOURA FERREIRA DANILEVICZ 1715/2019 D 02 16/12/2018 24/01/2019 17/12/2018
2884280 ANGELICA VENTURINI MORO 2703/2019 C 02 04/12/2018 22/03/2019 05/12/2018
2243453 ANNE MARIE WEISSHEIMER 3636/2018 D 02 02/03/2018 19/04/2018 03/03/2018
1253257 ANNELISE DE CARVALHO GONCALVES 3357/2018 D 01 25/03/2018 25/04/2018 26/03/2018
1507012 ANTONIO MARCOS VIEIRA SANSEVERINO 8548/2018 D 03 22/08/2017 15/08/2018 23/08/2017
1762797 ANTONIO MARINHO PILLA BARCELLOS 6201/2018 D 01 11/02/2018 04/07/2018 12/02/2018
2831648 ANTONIO SHIGUEAKI TAKIMI 6077/2018 A 02 07/06/2017 04/12/2017 08/06/2017
1766489 ARISTON AZEVEDO MENDES 5964/2018 D 01 11/02/2018 24/04/2018 12/02/2018
2511805 ARNALDO RUBEN GONZALEZ 3559/2019 D 02 01/01/2019 27/03/2019 02/01/2019
0357425 ARONI SATTLER 6078/2018 B 02 31/07/1997 07/06/2018 01/08/1997
1534113 AUGUSTO JAEGER JUNIOR 5889/2018 D 03 06/06/2018 12/06/2018 07/06/2018
2610712 AURORA CARNEIRO ZEN 4009/2018 C 04 09/10/2017 22/03/2018 10/10/2017
2299948 BEATRIZ CERISARA GIL 6198/2018 D 01 18/12/2016 05/07/2018 19/12/2016
2255306 BEATRIZ RIET CORREA RIVERO 3607/2018 A 02 29/09/2017 12/04/2018 30/09/2017
0357664 BERENICE BARBACHAN E SILVA 6212/2018 D 02 26/02/2018 07/03/2018 27/02/2018
0359325 BERNARDO LEWGOY 815/2019 E 01 18/12/2018 26/12/2018 19/12/2018
1809567 BETINA TSCHIEDEL MARTAU 8638/2018 D 01 30/08/2018 03/10/2018 31/08/2018
3359053 BIANCA KNAAK 10442/2018 D 02 03/12/2018 08/12/2018 04/12/2018
2886146 BIANCA RIBEIRO PONTIN 9218/2018 B 01 22/05/2018 19/10/2018 23/05/2018
2432829 BRANCA FREITAS DE OLIVEIRA 6051/2018 D 03 06/02/2018 22/03/2018 07/02/2018
1277109 BRASIL SILVA NETO 6348/2018 D 01 03/06/2018 18/06/2018 04/06/2018
2525376 CAMILA COSTA DUTRA 6083/2018 A 02 27/01/2018 18/05/2018 28/01/2018
3505540 CAMILA GREFF PASSOS 7320/2018 C 02 31/07/2018 30/08/2018 01/08/2018
2276997 CAMILO DA ROSA SIMÕES 6399/2018 A 02 27/01/2018 02/07/2018 28/01/2018
1769596 CARLA BEATRIZ MEINERZ 3449/2018 D 01 24/02/2018 23/04/2018 25/02/2018
3354058 CARLA SIMONE RUPPENTHAL NEUMANN 3132/2018 C 04 05/01/2018 21/03/2018 06/01/2018
1884256 CARLA SIRTORI 7317/2018 C 02 13/07/2018 20/08/2018 14/07/2018
2169069 CARLOS ANDRE AITA SCHMITZ 3533/2018 C 02 15/03/2018 09/04/2018 16/03/2018
1561552 CARLOS AUGUSTO NUNES CAMARGO 5949/2018 D 02 04/06/2018 29/06/2018 05/06/2018
1534571 CARLOS EDUARDO FORTIS KWIETNIEWSKI 6644/2018 D 03 03/04/2018 23/07/2018 04/04/2018
1822568 CARLOS EDUARDO SCHONERWALD DA SILVA 5883/2018 C 03 22/03/2017 05/06/2018 23/03/2017
1221543 CARLOS EUGENIO SILVA 8641/2018 D 02 31/07/2018 08/10/2018 01/08/2018
1998760 CARLOS FERNANDO SILVA BAHIMA 8681/2018 C 02 15/03/2018 04/10/2018 16/03/2018
1762800 CARLOS GUSTAVO TORNQUIST 6104/2018 D 01 28/02/2018 10/05/2018 01/03/2018
0351358 CARLOS HENRIQUE VASCONCELLOS HORN 7989/2018 D 03 31/12/2017 12/09/2018 01/01/2018
1769606 CARLOS HOPPEN 2978/2018 D 01 28/02/2018 19/03/2018 01/03/2018
2035598 CARLOS LEONARDO BONTURIM ANTUNES 5943/2018 C 02 24/06/2018 02/07/2018 25/06/2018
0351559 CARLOS NABINGER 5986/2018 D 01 24/07/2004 07/06/2018 25/07/2004
0356903 CARLOS THADEU SCHMIDT CERSKI 6330/2018 D 01 23/06/2015 20/06/2018 24/06/2015
2574141 CAROLINA BRITO CARVALHO DOS SANTOS 1490/2019 D 01 03/03/2018 18/12/2018 04/03/2018
1558099 CAROLINA HESSEL SILVEIRA 6346/2018 C 02 11/08/2017 13/12/2017 12/08/2017
2325475 CAROLINE PIETTA DIAS 8544/2018 A 02 24/07/2018 28/09/2018 25/07/2018
1884811 CASSIANE OLIVEIRA VELHO 483/2019 C 02 31/07/2018 11/12/2018 01/08/2018
1849579 CASSIO DA SILVA CALVETE 3555/2019 D 01 23/02/2019 13/03/2019 24/02/2019
0985844 CATARINA LEITE DOMENICI 1011/2019 D 03 24/08/2015 20/12/2018 25/08/2015
0353528 CATHARINA SIMONI DA COSTA 7676/2018 C 02 28/07/2016 04/09/2018 29/07/2016
1009960 CATIA GRISA 6297/2018 C 02 04/03/2018 19/04/2018 05/03/2018
1978172 CECILIA GRAVINA DA ROCHA 2466/2019 C 04 12/11/2018 20/02/2019 13/11/2018
2212020 CESAR BASTOS DE MATTOS VIEIRA 5893/2018 C 04 05/06/2018 08/06/2018 06/06/2018
1534467 CHRISTINE TESSELE NODARI 462/2019 D 03 07/05/2018 28/11/2018 08/05/2018
2038023 CINARA FERREIRA PAVANI 10434/2018 D 01 25/11/2018 30/11/2018 26/11/2018
Documento gerado sob autenticação Nº FOP.419.306.T7G, disponível no
endereço http://www.ufrgs.br/autenticacao
Documento certificado eletronicamente, conforme Portaria nº
3362/2016, que institui o Sistema de Documentos Eletrônicos da UFRGS.
4/14
SIAPE Nome do Servidor PortariaAnterior
Progressão
para
Classe/Nível
Fim
Interstício
Vigência
Financeira
Anterior
Nova
Vigência
Financeira
3505556 CINTIA CRISTIANE PETRY MAZZAFERRO 817/2019 D 01 31/10/2018 14/12/2018 01/11/2018
2424711 CINTIA INES BOLL 3295/2019 C 04 25/02/2019 01/03/2019 26/02/2019
1054852 CIRILO SEPPI BRESOLIN 9718/2018 A 02 13/03/2018 13/07/2018 14/03/2018
1812699 CLARICE MARASCHIN 3567/2019 D 01 30/12/2018 20/02/2019 31/12/2018
1812637 CLAUDIA GLAVAM DUARTE 7681/2018 D 01 29/08/2018 19/09/2018 30/08/2018
3319322 CLAUDIA HOFHEINZ GIACOMONI 7984/2018 D 03 23/06/2016 25/09/2018 24/06/2016
2250366 CLAUDIA JUNQUEIRA ARMELLINI 7098/2018 D 01 10/07/2018 24/08/2018 11/07/2018
1645351 CLAUDIA LUIZA CAIMI 7679/2018 D 01 29/07/2018 06/09/2018 30/07/2018
1215978 CLAUDIA SILVEIRA LIMA 7322/2018 D 03 28/06/2018 01/08/2018 29/06/2018
2525852 CLAUDIMAR SIDNEI FIOR 8828/2018 C 04 31/05/2018 23/10/2018 01/06/2018
2474360 CLAUDIO ESTEVAO FARIAS DA CRUZ 2445/2019 D 02 24/11/2018 12/02/2019 25/11/2018
2474700 CLAUDIO JOSE DE HOLANDA CAVALCANTI 1489/2019 D 03 31/12/2018 11/01/2019 01/01/2019
0357851 CLECI REGINA BEVILACQUA 6079/2018 D 04 10/06/2018 26/06/2018 11/06/2018
7351815 CLEZIO SALDANHA DOS SANTOS 3682/2018 D 03 07/06/2016 24/04/2018 08/06/2016
1656845 CONCEIÇÃO PALUDO 9981/2018 D 02 18/09/2018 16/10/2018 19/09/2018
1293127 CRISTIANE BAUERMANN LEITAO 1781/2019 C 04 15/05/2018 08/10/2018 16/05/2018
2333669 CRISTIANNE MARIA FAMER ROCHA 7321/2018 D 01 08/08/2018 21/08/2018 09/08/2018
2720669 CRISTINE MARIA WARMLING 1573/2019 D 01 22/11/2018 15/01/2019 23/11/2018
0359373 CYBELE CROSSETTI DE ALMEIDA 9310/2018 D 02 15/09/2018 05/10/2018 16/09/2018
6351846 DAGMAR ELAINE KAISER 7229/2018 D 01 15/07/2018 13/08/2018 16/07/2018
1523465 DANIEL CANAVESE DE OLIVEIRA 8834/2018 C 04 24/09/2018 11/10/2018 25/09/2018
1689907 DANIEL GUIMARÃES GERARDI 6398/2018 D 01 24/02/2018 10/04/2018 25/02/2018
1654556 DANIEL LORSCHEITTER BAPTISTA 6057/2018 C 04 29/02/2016 23/05/2018 01/03/2016
1686626 DANIEL PENS GELAIN 6203/2018 D 01 16/06/2018 25/06/2018 17/06/2018
2417942 DANIEL SERGIO PRESTA GARCIA 6821/2018 D 02 29/05/2018 28/06/2018 30/05/2018
1289267 DANIEL UMPIERRE DE MORAES 1381/2019 A 02 18/02/2018 12/11/2018 19/02/2018
1574520 DANIELA BORGES PAVANI 7421/2018 C 04 22/05/2017 13/08/2018 23/05/2017
2271361 DANIELA FRANCISCO BRAUNER 3127/2018 A 02 29/12/2017 21/03/2018 30/12/2017
2220570 DANIELA MARZOLA FIALHO 5954/2018 D 01 21/04/2018 07/06/2018 22/04/2018
2525379 DANIELA PINHEIRO MACHADO KERN 5879/2018 D 01 17/02/2018 28/06/2018 18/02/2018
2475785 DANIELE NOAL GAI 3569/2018 C 02 19/10/2017 11/05/2018 20/10/2017
1371723 DARIO FREDERICO PASCHE 3563/2019 D 02 17/02/2019 25/03/2019 18/02/2019
6351895 DARLI COLLARES 6668/2018 D 03 01/05/2018 13/07/2018 02/05/2018
1850308 DAVIDE CARBONAI 2553/2019 C 03 27/01/2019 12/02/2019 28/01/2019
0359323 DENISE FAGUNDES JARDIM 816/2019 E 01 18/12/2018 26/12/2018 19/12/2018
1849785 DENISE GROSSO DA FONSECA 2504/2019 D 01 15/02/2019 21/02/2019 16/02/2019
1586994 DENISE LINDSTROM BANDEIRA 3840/2018 D 02 01/01/2018 24/04/2018 02/01/2018
1974720 DENISE REGINA DE SALES 9781/2018 C 04 21/10/2018 19/11/2018 22/10/2018
1766403 DIEGO BONATTO 6327/2018 D 01 18/02/2018 03/08/2018 19/02/2018
2693567 DIEGO ECKHARD 3549/2019 C 02 11/02/2019 04/04/2019 12/02/2019
2423873 DIETER WARTCHOW 2705/2019 D 03 23/01/2019 18/02/2019 24/01/2019
1358977 DIMITRI DE AVILA CERVO 5945/2018 D 04 05/02/2018 01/03/2018 06/02/2018
2413665 DIOGO ANDRE PILGER 6643/2018 D 01 04/08/2018 06/08/2018 05/08/2018
1578025 DIOGO JOEL DEMARCO 8540/2018 D 01 03/09/2018 08/10/2018 04/09/2018
2440918 DIOGO PILGER 5985/2018 A 02 01/05/2018 12/06/2018 02/05/2018
1589233 DIOGO POMPÉU DE MORAES 3849/2018 C 04 12/07/2016 20/04/2018 13/07/2016
1770162 DÓRIS BITTENCOURT ALMEIDA 5881/2018 D 01 01/03/2018 28/06/2018 02/03/2018
2281542 DOUGLAS GAMBA 8643/2018 A 02 28/02/2018 28/09/2018 01/03/2018
2349588 DULCIMARTA LEMOS LINO 3292/2019 A 02 08/12/2018 01/03/2019 09/12/2018
1999487 EDER DANIEL TEIXEIRA 6189/2018 C 02 19/05/2018 19/06/2018 20/05/2018
1286518 EDILSON PAULO 9979/2018 D 02 14/08/2018 06/11/2018 15/08/2018
2174577 EDINEI KOESTER 3300/2018 D 03 07/03/2018 09/04/2018 08/03/2018
1642083 EDSON TALAMINI 8833/2018 D 02 21/07/2018 12/09/2018 22/07/2018
1881707 EDUARDO CAMBRUZZI 5882/2018 C 04 13/07/2017 01/12/2017 14/07/2017
Documento gerado sob autenticação Nº FOP.419.306.T7G, disponível no
endereço http://www.ufrgs.br/autenticacao
Documento certificado eletronicamente, conforme Portaria nº
3362/2016, que institui o Sistema de Documentos Eletrônicos da UFRGS.
5/14
SIAPE Nome do Servidor PortariaAnterior
Progressão
para
Classe/Nível
Fim
Interstício
Vigência
Financeira
Anterior
Nova
Vigência
Financeira
2620161 EDUARDO CARDOSO 6473/2018 C 02 06/07/2018 09/08/2018 07/07/2018
2033656 EDUARDO DE OLIVEIRA HORTA 6202/2018 C 02 19/06/2018 06/07/2018 20/06/2018
2212306 EDUARDO ERNESTO FILIPPI 8015/2018 D 04 27/06/2018 17/09/2018 28/06/2018
2437848 EDUARDO GUIMARAES BARBOZA 3448/2018 D 03 27/03/2018 17/04/2018 28/03/2018
2505065 EDUARDO JOSÉ GAIO 10226/2018 C 02 15/12/2018 18/10/2018 16/12/2018
2859290 EDUARDO LUIS KONRATH 6109/2018 C 02 01/05/2018 06/06/2018 02/05/2018
1972696 EDUARDO PUHL 9214/2018 C 04 08/10/2018 12/10/2018 09/10/2018
1227681 EDUARDO ROLIM DE OLIVEIRA 2329/2019 D 04 31/10/2016 23/01/2019 01/11/2016
1253331 EDUARDO SPRINZ 413/2019 C 04 01/01/2018 20/06/2018 02/01/2018
1806684 ELAINE BARROS INDRUSIAK 7885/2018 D 01 10/08/2018 17/09/2018 11/08/2018
1339807 ELIANA LIMA DA FONSECA 7224/2018 D 03 22/06/2018 13/08/2018 23/06/2018
2273246 ELIANA WEBER DE MENEZES 6155/2018 A 02 14/01/2018 16/05/2018 15/01/2018
0354548 ELIANE NORMA WAGNER MENDES 2555/2019 D 01 19/12/2015 13/02/2019 20/12/2015
1724385 ELISA BARBOSA COUTINHO 2859/2019 C 02 07/01/2019 22/03/2019 08/01/2019
1770445 ELISA BATTISTI 3450/2018 D 01 23/02/2018 08/05/2018 24/02/2018
1450513 ELISA CRISTINA MODESTO 6215/2018 D 04 15/04/2018 13/06/2018 16/04/2018
1662149 ELISA REINHARDT PIEDRAS 10624/2018 D 02 09/10/2018 27/11/2018 10/10/2018
1212218 ELISABETE ZARDO BURIGO 10223/2018 D 04 08/12/2018 10/12/2018 09/12/2018
0982150 ELISABETH GOMES DA ROCHA THOME 1716/2019 C 03 19/12/2015 21/01/2019 20/12/2015
2964220 ELISANGELA LASTA 10107/2018 A 02 27/06/2018 30/10/2018 28/06/2018
1612443 ELISEO BERNI REATEGUI 7323/2018 D 02 25/02/2018 15/07/2018 26/02/2018
1995830 ELISETE ENIR BERNARDI GARCIA 464/2019 C 03 30/01/2017 13/12/2018 31/01/2017
2069414 ELISEU RODRIGUES 9782/2018 C 02 04/11/2018 09/11/2018 05/11/2018
2214165 ELIZAMARI RODRIGUES BECKER 8675/2018 D 01 15/08/2018 04/10/2018 16/08/2018
2252204 ELIZETH PAZ DA SILVA HELDT 408/2019 D 03 14/12/2018 19/12/2018 15/12/2018
0356892 ELOA ROSSONI 2146/2019 D 01 02/09/2018 07/01/2019 03/09/2018
1027369 ELZA DANIEL DE MELLO 6486/2018 D 04 24/10/2017 11/07/2018 25/10/2017
1361480 EMERSON ALESSANDRO GIUMBELLI 3531/2018 D 04 22/08/2016 07/05/2018 23/08/2016
1361480 EMERSON ALESSANDRO GIUMBELLI 812/2019 E 01 18/12/2018 26/12/2018 19/12/2018
1648923 EMERSON GUSTAVO DE SOUZA LUNA 9551/2018 C 04 09/09/2015 16/11/2018 10/09/2015
1715415 EMILIANA FARIA ROSA 9222/2018 C 03 10/09/2017 25/10/2018 11/09/2017
0356048 ENAURA HELENA BRANDAO CHAVES 2977/2018 D 01 17/12/2016 06/04/2018 18/12/2016
0359413 ENRIQUE SERRA PADROS 9224/2018 D 03 01/04/2018 27/08/2018 02/04/2018
2134724 ERACLITO PEREIRA 8270/2018 A 02 06/07/2016 25/09/2018 07/07/2016
1853591 ERICO ESTEVES DUARTE 6898/2018 C 04 24/03/2018 21/08/2018 25/03/2018
1488452 ERIKA FERNANDES COTA 9312/2018 D 03 29/07/2017 11/10/2018 30/07/2017
2349511 ERNO HARZHEIM 6204/2018 D 03 25/05/2018 05/06/2018 26/05/2018
1848322 ESEQUIA SAUTER 2517/2019 C 04 22/01/2019 07/03/2019 23/01/2019
2285368 FABIANA SCHNEIDER PIRES 3030/2018 A 02 21/02/2018 26/03/2018 22/02/2018
2887858 FABIANE SGORLA 3557/2019 A 02 07/08/2018 22/03/2019 08/08/2018
1964962 FABIANO BERNARDI 8097/2018 C 04 16/08/2018 24/09/2018 17/08/2018
1847192 FABIANO BOSSLE 2503/2019 D 01 16/02/2019 18/02/2019 17/02/2019
1902940 FABIANO DISCONZI WILDNER 5948/2018 C 04 21/11/2017 11/05/2018 22/11/2017
1548305 FABIANO ENGELMANN 7314/2018 D 03 05/08/2018 08/08/2018 06/08/2018
1343614 FABIANO MENKE 7126/2017 C 03 24/05/2016 01/08/2016 25/05/2016
1343614 FABIANO MENKE 9447/2018 C 04 24/05/2018 14/09/2018 25/05/2018
1765628 FABIO BITTENCOURT MEIRA 8644/2018 D 01 23/02/2018 10/10/2018 24/02/2018
6357430 FABIO KUHN 9553/2018 D 02 19/02/2016 17/10/2018 20/02/2016
1856311 FABIO SOUTO DE AZEVEDO 3552/2019 D 01 28/03/2019 01/04/2019 29/03/2019
1769447 FABIOLA ROHDEN 6163/2018 D 01 11/03/2018 06/05/2018 12/03/2018
1996447 FAGNER BERNARDINI RODRIGUES 6188/2018 C 03 25/02/2018 05/07/2018 26/02/2018
1852145 FELIPE CARON 9450/2018 C 03 31/05/2018 25/09/2018 01/06/2018
1852631 FELIPE DOS SANTOS MARASCHIN 6087/2018 C 04 21/02/2017 07/06/2018 22/02/2017
2297680 FELIPE JOSÉ COMUNELLO 8836/2018 A 02 07/03/2018 25/09/2018 08/03/2018
Documento gerado sob autenticação Nº FOP.419.306.T7G, disponível no
endereço http://www.ufrgs.br/autenticacao
Documento certificado eletronicamente, conforme Portaria nº
3362/2016, que institui o Sistema de Documentos Eletrônicos da UFRGS.
6/14
SIAPE Nome do Servidor PortariaAnterior
Progressão
para
Classe/Nível
Fim
Interstício
Vigência
Financeira
Anterior
Nova
Vigência
Financeira
2347173 FELIPE KIRST ADAMI 1867/2019 D 01 08/12/2018 01/02/2019 09/12/2018
2256275 FELIPE ROMAN CENTENO 3762/2018 A 02 04/10/2017 12/12/2017 05/10/2017
1621086 FERNANDA GOMES VICTOR 6471/2018 C 03 09/12/2017 27/03/2018 10/12/2017
2276980 FERNANDA MACIEL REICHERT 3677/2018 A 02 21/01/2018 21/03/2018 22/01/2018
2078033 FERNANDA POLETTO 494/2019 C 02 09/12/2018 12/12/2018 10/12/2018
2677867 FERNANDA SOUZA DE BAIRROS 3606/2018 A 02 14/02/2018 02/05/2018 15/02/2018
1804160 FERNANDA SPANIER AMADOR 6665/2018 D 01 29/07/2018 14/08/2018 30/07/2018
1143839 FERNANDA TARABAL LOPES 3675/2018 A 02 01/04/2017 10/03/2018 02/04/2017
3615654 FERNANDA VISIOLI 6261/2018 C 04 04/06/2018 20/06/2018 05/06/2018
1200662 FERNANDO CAFRUNI ANDRE 8230/2018 B 01 20/07/2013 15/08/2018 21/07/2013
1451235 FERNANDO DIAS LOPES 3291/2019 D 04 08/03/2019 19/03/2019 09/03/2019
2855225 FERNANDO DORNELLES 9445/2018 C 04 10/10/2018 18/10/2018 11/10/2018
2328398 FERNANDO ERTHAL 7239/2018 A 02 24/07/2018 29/08/2018 25/07/2018
2048776 FERNANDO FROTA DILLENBURG 10220/2018 C 02 11/08/2018 17/09/2018 12/08/2018
1253779 FERNANDO GERCHMAN 6167/2018 C 03 24/02/2017 13/06/2018 25/02/2017
2216848 FERNANDO GERTUM BECKER 2961/2019 D 02 13/03/2015 18/03/2019 14/03/2015
1221725 FERNANDO MAINARDI FAN 6190/2018 A 02 14/04/2018 19/06/2018 15/04/2018
2577126 FLAVIA ATAIDE PITHAN 3566/2019 D 02 12/01/2019 26/03/2019 13/01/2019
2449475 FLAVIA CHARAO MARQUES 6110/2018 C 04 28/02/2017 24/05/2018 01/03/2017
1723684 FLAVIA GOMES MARTINEZ 577/2019 D 01 12/08/2017 12/10/2018 13/08/2017
0356836 FLAVIO BENEVETT FLIGENSPAN 9548/2018 D 01 06/11/2018 12/11/2018 07/11/2018
1354565 FLAVIO SANSON FOGLIATTO 7425/2018 E 01 20/07/2018 01/08/2018 21/07/2018
1194952 FLAVIO TOSI FEIJO 1290/2019 D 03 15/12/2017 27/12/2018 16/12/2017
1534210 FLORENCE CARBONI 9378/2018 D 02 06/06/2016 29/10/2018 07/06/2016
1767188 FLORENCIA CLADERA OLIVERA 6294/2018 D 01 24/02/2018 09/08/2018 25/02/2018
1359980 FRANCISCO EGGER MOELLWALD 6081/2018 D 04 12/12/2017 21/03/2018 13/12/2017
1252658 FRANCISCO JOSÉ VERISSIMO VERONESE 5939/2018 D 02 29/11/2017 27/03/2018 30/11/2017
2074870 FRANCISCO PAULO DOS SANTOS 465/2019 C 02 01/12/2018 05/12/2018 02/12/2018
1812294 GABRIEL DE AVILA OTHERO 7672/2018 D 01 24/08/2018 05/09/2018 25/08/2018
1764253 GABRIEL VIEIRA SOARES 7147/2018 D 01 13/08/2018 23/08/2018 14/08/2018
2034926 GABRIELA BETTELLA CYBIS 7140/2018 C 02 19/06/2018 06/07/2018 20/06/2018
3290151 GABRIELA PEIXOTO COELHO DE SOUZA 409/2019 C 04 16/08/2015 04/12/2018 17/08/2015
1820931 GERHARD ERNST OVERBECK 9313/2018 D 01 10/10/2018 06/11/2018 11/10/2018
1910326 GERSON LUIZ CARLOS BRANCO 2724/2018 C 04 26/12/2017 12/04/2018 27/12/2017
0359218 GIACOMO BALBINOTTO NETO 8090/2018 D 04 15/07/2015 28/08/2018 16/07/2015
2228826 GILBERTO ICLE 6470/2018 D 03 14/05/2018 07/07/2018 15/05/2018
2354048 GILBERTO TAVARES DOS SANTOS 8543/2018 D 01 22/09/2018 10/10/2018 23/09/2018
2323632 GILSON INACIO WIRTH 2155/2019 D 03 29/01/2019 11/02/2019 30/01/2019
2110493 GIOVANA DOMENEGHINI MERCALI 3739/2019 C 02 07/04/2019 24/04/2019 08/04/2019
1534267 GIOVANA SAVITRI PASA 6539/2018 D 03 16/05/2018 08/07/2018 17/05/2018
2328420 GIOVANI BULLA 8837/2018 A 02 26/07/2018 17/10/2018 27/07/2018
1226751 GISELA COSTA HABEYCHE 2950/2018 C 02 26/05/2016 15/01/2018 27/05/2016
0356815 GISELA MARIA SCHEBELLA SOUTO DE MOURA 6191/2018 D 03 04/06/2018 29/06/2018 05/06/2018
2211550 GISELE GUS MANFRO 6324/2018 D 03 27/06/2018 11/07/2018 28/06/2018
0357424 GLADIS BORDIN 2330/2019 C 02 03/04/2002 06/02/2019 04/04/2002
2695581 GLAISON AUGUSTO GUERRERO 10216/2018 C 02 29/08/2018 17/09/2018 30/08/2018
1904494 GLAUCIA HELENA MOTTA GROHS 484/2019 C 04 06/12/2017 04/01/2019 07/12/2017
1946906 GRACIELE SBRUZZI 10623/2018 C 04 03/06/2018 28/11/2018 04/06/2018
1464259 GUILHERME FERNANDES MARQUES 2709/2019 D 03 31/12/2017 21/02/2019 01/01/2018
1841720 GUILHERME FRANCISCO WATERLOO RADOMSKY 3421/2019 D 01 03/02/2019 14/02/2019 04/02/2019
2031285 GUILHERME PUMI 5884/2018 C 02 12/06/2018 06/07/2018 13/06/2018
2133285 GUSTAVO DORNELES FERREIRA 3442/2018 A 02 26/09/2017 29/01/2018 27/09/2017
2612583 GUSTAVO JAVIER ZANI NUNEZ 5933/2018 C 04 01/02/2018 10/04/2018 02/02/2018
0354805 HAMILTON DUARTE KLIMACH 3446/2018 D 02 16/03/2018 05/04/2018 17/03/2018
Documento gerado sob autenticação Nº FOP.419.306.T7G, disponível no
endereço http://www.ufrgs.br/autenticacao
Documento certificado eletronicamente, conforme Portaria nº
3362/2016, que institui o Sistema de Documentos Eletrônicos da UFRGS.
7/14
SIAPE Nome do Servidor PortariaAnterior
Progressão
para
Classe/Nível
Fim
Interstício
Vigência
Financeira
Anterior
Nova
Vigência
Financeira
2174556 HAMILTON LUIZ DE SOUZA MORAES 2494/2018 D 04 10/02/2018 03/04/2018 11/02/2018
1358015 HEITOR DA COSTA SILVA 6076/2018 D 03 05/07/2017 17/05/2018 06/07/2017
0421512 HELENA ARAUJO RODRIGUES KANAAN 1010/2019 D 03 07/10/2018 08/01/2019 08/10/2018
2625012 HELENICE CARVALHO 9991/2018 D 02 17/04/2018 27/08/2018 18/04/2018
1298673 HELENIZA ÁVILA CAMPOS 6648/2018 C 04 06/03/2018 07/06/2018 07/03/2018
1079013 HELIO CUSTODIO FERVENZA 6349/2018 D 02 30/04/2008 31/07/2018 01/05/2008
0351370 HELIO HENKIN 9210/2018 D 04 30/12/2017 04/09/2018 31/12/2017
0357325 HELOISA HELENA KARNAS HOEFEL 6049/2018 C 04 25/01/2018 01/05/2018 26/01/2018
1535321 HENRI STEPHAN SCHREKKER 3648/2019 D 03 30/05/2018 26/03/2019 31/05/2018
2197930 HENRIQUE CARLOS DE OLIVEIRA DE CASTRO 3295/2018 D 02 04/10/2017 02/04/2018 05/10/2017
1474144 HENRIQUE MORRONE 8096/2018 C 02 25/08/2018 12/09/2018 26/08/2018
3544285 HUDSON DA SILVA TORRENT 6537/2018 D 01 30/06/2018 07/08/2018 01/07/2018
2225072 HUGO FRIDOLINO MULLER NETO 3839/2018 D 02 17/01/2018 30/04/2018 18/01/2018
1253364 HUGO GOULART DE OLIVEIRA 5895/2018 D 02 12/12/2015 20/06/2018 13/12/2015
1530560 HUGO VERLI 9380/2018 D 03 10/04/2018 21/08/2018 11/04/2018
1760436 I JUCA PIRAMA CAMARGO GIL 6401/2018 C 04 09/02/2016 10/04/2018 10/02/2016
2254153 IDA VANESSA DOEDERLEIN SCHWARTZ 3311/2019 D 03 23/01/2019 13/03/2019 24/01/2019
2643188 IDIANE ROSSET 7892/2018 D 01 29/08/2018 24/09/2018 30/08/2018
2687222 IGNACIO MARIA BENITES MORENO 6153/2018 D 01 08/02/2018 05/05/2018 09/02/2018
1529785 INGRID FINGER 8838/2018 D 02 09/04/2016 14/09/2018 10/04/2016
2309124 IONARA RODRIGUES SIQUEIRA 7675/2018 D 03 01/08/2018 15/08/2018 02/08/2018
1545035 IRACI LUCENA DA SILVA TORRES 7682/2018 D 03 31/07/2018 15/08/2018 01/08/2018
1805239 IRENE CLEMES KULKAMP GUERREIRO 6756/2018 D 01 10/08/2018 13/08/2018 11/08/2018
1143005 ISABEL CRISTINA ECHER 382/2019 D 03 29/11/2018 19/12/2018 30/11/2018
2505206 IVES SOLANO ARAUJO 6200/2018 D 03 13/06/2018 20/06/2018 14/06/2018
2891750 JACKSON DA SILVA MEDEIROS 9975/2018 C 02 11/08/2018 14/11/2018 12/08/2018
2074841 JACKSON DAMIANI SCHOLTEN 482/2019 C 02 08/12/2018 17/12/2018 09/12/2018
2323550 JACQUELINE ANGELICA HERNANDEZ HAFFNER 7312/2018 D 01 25/03/2018 14/06/2018 26/03/2018
1779705 JACQUELINE ARGUELLO DA SILVA 6161/2018 D 01 18/04/2018 11/06/2018 19/04/2018
1819235 JACQUELINE FERREIRA LEITE SANTOS 415/2019 C 02 10/11/2018 21/11/2018 11/11/2018
1530848 JAIME JOSE ZITKOSKI 5829/2018 D 03 07/05/2018 28/06/2018 08/05/2018
1014506 JAIRO ALFREDO GENZ BOLTER 5892/2018 C 02 14/04/2018 08/05/2018 15/04/2018
2254138 JANETE VETTORAZZI 3296/2019 C 02 18/01/2019 11/03/2019 19/01/2019
2082751 JANICE DORNELLES DE CASTRO 8549/2018 D 02 07/04/2018 12/09/2018 08/04/2018
1160183 JANICE ZARPELLON MAZO 5963/2018 D 04 29/03/2018 18/04/2018 30/03/2018
2273106 JAQUELINE MARCELA VILLAFUERTE BITTENCOURT 9223/2018 A 02 07/01/2018 22/10/2018 08/01/2018
1309679 JAQUELINE NEVES LUBIANCA 9212/2018 D 03 15/08/2018 20/09/2018 16/08/2018
2138590 JEAN CARLOS PRESSER DOS SANTOS 6400/2018 C 01 01/07/2016 02/07/2018 02/07/2016
1849737 JEFFERSON LOPES CARDOSO 10106/2018 C 04 09/02/2017 09/11/2018 10/02/2017
1874209 JEFFERSON TOMIO SANADA 2992/2018 C 04 23/02/2018 17/04/2018 24/02/2018
2359717 JESSIE SOBIESKI DA COSTA 3055/2019 A 02 21/01/2019 24/01/2019 22/01/2019
3314130 JOANA BOSAK DE FIGUEIREDO 8546/2018 C 03 24/11/2017 11/09/2018 25/11/2017
2299445 JOANA SIQUEIRA DE SOUZA 6086/2018 A 02 31/03/2018 25/04/2018 01/04/2018
2221126 JOAO ANTONIO TADEU PIGATTO 3532/2018 D 04 04/02/2018 17/04/2018 05/02/2018
2195928 JOAO BATISTA DA PAZ CARVALHO 3561/2019 D 04 06/03/2019 20/03/2019 07/03/2019
1081416 JOAO CARLOS OLIVA 5977/2018 C 03 22/07/2011 22/04/2018 23/07/2011
2270376 JOAO FABIO SOARES 6084/2018 A 02 22/12/2017 15/06/2018 23/12/2017
0359297 JOAO FELIZ DUARTE DE MORAES 5947/2018 D 03 15/07/2016 04/06/2018 16/07/2016
2505523 JOAO FROIS CALDEIRA 10097/2018 C 04 30/03/2017 04/09/2018 31/03/2017
3645196 JOAO PLINIO JUCHEM NETO 8093/2018 C 02 07/08/2018 17/09/2018 08/08/2018
1358872 JOEL GUSMAO OUTTES WANDERLEY FILHO 7313/2018 D 02 05/10/2015 04/09/2018 06/10/2015
2328254 JORDANA CORRALO SPADA 8983/2018 A 02 04/08/2018 04/09/2018 05/08/2018
2331380 JORGE LUIS PALOMINO TAMAYO 9216/2018 A 02 21/08/2018 14/09/2018 22/08/2018
0357473 JORGE VILLANOVA BIAZUS 8538/2018 D 02 19/12/2017 06/09/2018 20/12/2017
Documento gerado sob autenticação Nº FOP.419.306.T7G, disponível no
endereço http://www.ufrgs.br/autenticacao
Documento certificado eletronicamente, conforme Portaria nº
3362/2016, que institui o Sistema de Documentos Eletrônicos da UFRGS.
8/14
SIAPE Nome do Servidor PortariaAnterior
Progressão
para
Classe/Nível
Fim
Interstício
Vigência
Financeira
Anterior
Nova
Vigência
Financeira
0356791 JOSE ANTONIO SALDANHA LOUZADA 6044/2018 D 04 26/01/2018 11/06/2018 27/01/2018
1511621 JOSE CARLOS BARACAT JUNIOR 7680/2018 D 03 20/08/2018 19/09/2018 21/08/2018
1230529 JOSE CARLOS FREITAS LEMOS 6048/2018 D 01 27/04/2018 08/06/2018 28/04/2018
1094987 JOSE OTAVIO CATAFESTO DE SOUZA 3301/2019 C 04 31/12/2005 19/03/2019 01/01/2006
0357166 JOSE PINHEIRO PERTILLE 3342/2018 D 03 12/12/2017 12/04/2018 13/12/2017
0358866 JUAREZ FREITAS 5953/2018 D 04 30/12/2015 18/04/2018 31/12/2015
2328363 JULIA RIBEIRO SARKIS 9311/2018 A 02 02/08/2018 04/09/2018 03/08/2018
1764311 JULIANA BALBINOT HILGERT 4008/2018 D 01 16/02/2018 11/04/2018 17/02/2018
1186530 JULIANA DE OLIVEIRA POKORSKI 7422/2018 A 02 04/10/2017 18/07/2018 05/10/2017
3436088 JULIANA JOBIM JARDIM 5890/2018 C 04 01/08/2016 24/01/2018 02/08/2016
2523050 JULIANA ROQUELE SCHOFFEN 7767/2018 D 01 05/08/2018 28/08/2018 06/08/2018
1932328 JULIANA SEVERO FAGUNDES PEREIRA 6088/2018 C 02 12/05/2018 16/05/2018 13/05/2018
2686923 JULIANE GOLUBINSKI CAPAVERDE 5885/2018 A 02 06/06/2018 20/06/2018 07/06/2018
2769464 JULIANO CAVAGNI 3733/2019 C 02 26/11/2018 23/03/2019 27/11/2018
1768485 JUSSARA MARIA ROSA MENDES 3604/2018 D 01 28/02/2018 04/05/2018 01/03/2018
0358822 KAREN DANTUR BATISTA CHAVES 5897/2018 D 02 09/06/2018 28/06/2018 10/06/2018
1533914 KAREN PUPP SPINASSÉ 7315/2018 D 03 04/06/2018 08/08/2018 05/06/2018
1809173 KARIN BECKER 7412/2018 D 01 23/08/2018 26/08/2018 24/08/2018
1824920 KARINA DE CASTILHOS LUCENA 7990/2018 C 03 31/07/2016 06/09/2018 01/08/2016
2735202 KARINA PAESE 3560/2019 A 02 28/02/2019 15/03/2019 01/03/2019
2496514 KARINA SANTOS MUNDSTOCK 3306/2019 D 01 12/02/2017 05/02/2019 13/02/2017
3290208 KATIA BERNARDO GUSMAO 6045/2018 D 03 17/05/2018 06/06/2018 18/05/2018
2718298 KÁTIA KELLEM DA ROSA 7225/2018 C 03 19/02/2018 05/07/2018 20/02/2018
2577221 KLAUS COHEN KOPLIN 9444/2018 C 03 23/01/2016 14/09/2018 24/01/2016
1765142 LAURI LOURENCO RADUNZ 6265/2018 D 01 23/03/2018 10/05/2018 24/03/2018
6356172 LAURINDO ANTONIO GUASSELLI 10221/2018 D 03 22/08/2018 12/09/2018 23/08/2018
0357536 LEA MARIA DORNELES JAPUR 9556/2018 B 01 29/12/2004 26/09/2018 30/12/2004
2135497 LEANDRA ANVERSA FIOREZE 6350/2018 D 01 17/05/2018 21/05/2018 18/05/2018
3300281 LEANDRA FRANCISCATO CAMPO 9208/2018 D 02 30/07/2018 15/10/2018 31/07/2018
2273773 LEANDRO CESAR DE GODOY 6054/2018 A 02 24/01/2018 23/04/2018 25/01/2018
2334094 LEANDRO DA SILVA DUARTE 6073/2018 D 01 12/06/2018 14/06/2018 13/06/2018
1530873 LEANDRO DO AMARAL DORNELES DE DORNELES 7994/2018 D 03 04/05/2018 15/08/2018 05/05/2018
1531202 LEANDRO KRUG WIVES 6205/2018 D 03 01/05/2018 04/07/2018 02/05/2018
2474260 LEANDRO LANGIE ARAUJO 7677/2018 C 04 01/03/2017 17/09/2018 02/03/2017
1809390 LELIZ TICONA ARENAS 9206/2018 D 01 19/08/2018 10/10/2018 20/08/2018
1766105 LENISA BRANDÃO 6108/2018 C 04 21/02/2016 04/06/2018 22/02/2016
2309203 LEONARDO ALBUQUERQUE HEIDEMANN 9983/2018 A 02 02/05/2018 22/11/2018 03/05/2018
2355694 LEONARDO ALEXANDRE PEYRE TARTARUGA 3681/2018 D 02 12/02/2018 27/03/2018 13/02/2018
1321398 LEONARDO PRANGE BONORINO 6315/2018 D 01 15/07/2018 08/08/2018 16/07/2018
2212648 LEONARDO XAVIER DA SILVA 7149/2018 D 02 17/03/2018 02/04/2018 18/03/2018
1769944 LETICIA MARIA SCHABBACH 3341/2018 D 01 28/02/2018 13/04/2018 01/03/2018
2276161 LIANE ROLDO 3546/2018 D 03 30/03/2018 05/04/2018 31/03/2018
1774281 LIGIA MORI MADEIRA 3605/2018 D 01 07/04/2018 27/04/2018 08/04/2018
1937112 LILIAM RAMOS DA SILVA 7988/2018 C 02 16/11/2017 28/06/2018 17/11/2017
2308147 LILIAN EGGERS 6074/2018 D 03 30/12/2017 12/06/2018 31/12/2017
2083533 LILIAN RODRIGUES DA CRUZ 3060/2019 C 02 21/01/2019 22/03/2019 22/01/2019
1769768 LILIANA AMARAL FERIS 3443/2018 D 01 28/02/2018 28/03/2018 01/03/2018
2355476 LINEIA SCHUTZ 3547/2019 C 02 23/02/2019 08/04/2019 24/02/2019
1527738 LISETE ARNIZAUT MACHADO DE VARGAS 6321/2018 D 03 05/04/2018 13/07/2018 06/04/2018
3446150 LISIANE FEITEN WINGERT ODY 9712/2018 C 04 28/05/2018 14/09/2018 29/05/2018
2474817 LISIANE QUADRADO CLOSS 9219/2018 C 04 29/07/2018 22/10/2018 30/07/2018
2095352 LIVIA KMETZSCH ROSA E SILVA 2858/2019 C 02 13/02/2019 21/03/2019 14/02/2019
1241162 LIVIA TERESINHA SALOMAO PICCININI 3294/2019 D 02 15/01/2018 11/03/2019 16/01/2018
1012601 LUCAS DA SILVA OLIVEIRA 3655/2019 C 02 29/01/2019 25/03/2019 30/01/2019
Documento gerado sob autenticação Nº FOP.419.306.T7G, disponível no
endereço http://www.ufrgs.br/autenticacao
Documento certificado eletronicamente, conforme Portaria nº
3362/2016, que institui o Sistema de Documentos Eletrônicos da UFRGS.
9/14
SIAPE Nome do Servidor PortariaAnterior
Progressão
para
Classe/Nível
Fim
Interstício
Vigência
Financeira
Anterior
Nova
Vigência
Financeira
2024415 LUCAS DE OLIVEIRA ALVARES 3972/2018 C 02 12/05/2018 28/05/2018 13/05/2018
1995708 LUCAS MELLO SCHNORR 3312/2019 C 04 31/01/2019 20/02/2019 01/02/2019
2273731 LUCAS SILVEIRA MACHADO 8094/2018 A 02 20/01/2018 18/06/2018 21/01/2018
1164584 LUCIA BECKER CARPENA 1012/2019 D 04 29/10/2018 20/12/2018 30/10/2018
3434821 LUCIA HELENA RIBEIRO RODRIGUES 6404/2018 C 02 02/06/2018 04/07/2018 03/06/2018
1852809 LUCIA ROTTAVA 3554/2019 D 01 27/02/2019 30/03/2019 28/02/2019
1506262 LUCIANA DE SOUZA CARDOSO 417/2019 D 03 30/07/2018 24/08/2018 31/07/2018
1643485 LUCIANA FERNANDES MARQUES 1681/2019 D 02 07/12/2018 20/12/2018 08/12/2018
1523899 LUCIANA INES GOMES MIRON 6165/2018 D 02 25/05/2018 07/06/2018 26/05/2018
1849526 LUCIANA PALUDO 3562/2019 C 02 22/03/2017 08/03/2019 23/03/2017
2566550 LUCIANA PICCOLI 3299/2018 D 01 21/12/2017 28/03/2018 22/12/2017
2193209 LUCIANA VELLINHO CORSO 10604/2018 D 02 14/12/2018 17/12/2018 15/12/2018
1646401 LUCIANE CARDOSO BARZOTTO 9714/2018 D 01 24/07/2016 31/10/2018 25/07/2016
1552574 LUCIANE DE CONTI 2962/2019 C 02 17/02/2019 21/03/2019 18/02/2019
1878117 LUCIANI PAZ COMERLATTO 6819/2018 A 02 23/12/2017 03/05/2018 24/12/2017
1753722 LUCIANO FERREIRA 3837/2018 D 01 25/01/2018 25/04/2018 26/01/2018
2243014 LUCIANO PASCHOAL GASPARY 7678/2018 D 03 29/06/2018 31/08/2018 30/06/2018
2693805 LUCIANO TREVIZAN 3647/2019 D 01 17/02/2019 01/03/2019 18/02/2019
1987022 LUCINÉIA HELOISA THOM 1689/2019 C 04 01/01/2019 03/01/2019 02/01/2019
1176270 LUIS AFONSO HECK 8269/2018 D 03 21/02/2015 28/08/2018 22/02/2015
1354710 LUIS ALBERTO LOUREIRO DOS SANTOS 7426/2018 E 01 20/07/2018 01/08/2018 21/07/2018
1769155 LUÍS ALBERTO PEREIRA 3441/2018 D 01 17/02/2018 06/04/2018 18/02/2018
1268432 LUIS EDUARDO PAIM ROHDE 6322/2018 D 03 30/04/2018 11/07/2018 01/05/2018
2456078 LUIS GUSTAVO CORBELLINI 3528/2018 D 03 09/03/2018 06/04/2018 10/03/2018
0382789 LUIS GUSTAVO MELLO GROHMANN 6647/2018 D 02 20/02/2017 08/06/2018 21/02/2017
1215977 LUIS MAURO GONÇALVES ROSA 10606/2018 D 01 31/07/2006 07/12/2018 01/08/2006
1910373 LUIS RENATO FERREIRA DA SILVA 7012/2018 C 02 11/04/2014 16/04/2018 12/04/2014
6357691 LUIS VALMOR CRUZ PORTELA 491/2019 D 04 20/07/2018 19/11/2018 21/07/2018
2770290 LUISA GERTRUDIS DURÁN ROCCA 2505/2019 D 01 19/12/2018 14/01/2019 20/12/2018
1770122 LUISANDRO MENDES DE SOUZA 5830/2018 C 03 10/06/2016 06/06/2018 11/06/2016
2305957 LUIZ CARLOS BUCHAIN 10437/2018 C 02 31/01/2014 14/09/2018 01/02/2014
2507880 LUIZ EMILIO ALLEM 3550/2019 D 01 28/03/2019 09/04/2019 29/03/2019
0357678 LUIZ FELIPE SANTOS GONCALVES 5935/2018 D 01 25/05/2002 14/03/2018 26/05/2002
0357871 LUIZ FERNANDO WALBER 6192/2018 C 02 31/12/2013 25/06/2018 01/01/2014
1066834 LUIZ TIARAJU DOS REIS LOUREIRO 1918/2019 C 04 13/04/2014 06/02/2019 14/04/2014
2323720 MAGALI LOPES ENDRUWEIT 8547/2018 D 01 10/08/2018 09/10/2018 11/08/2018
2307961 MAGALI MENDES DE MENEZES 3076/2019 D 01 24/01/2019 11/02/2019 25/01/2019
1548741 MAGNO VALÉRIO TRINDADE MACHADO 7145/2018 D 02 08/04/2018 10/08/2018 09/04/2018
2349223 MAGNÓLIA APARECIDA SILVA DA SILVA 6050/2018 C 04 18/07/2016 17/05/2018 19/07/2016
2492611 MAITY SIMONE GUERREIRO SIQUEIRA 8981/2018 D 03 29/09/2018 18/10/2018 30/09/2018
1768840 MANOELA DOMINGUES MARTINS 6474/2018 D 01 01/03/2018 06/03/2018 02/03/2018
1354733 MANUEL MENEZES DE OLIVEIRA NETO 10100/2018 E 01 27/11/2018 28/11/2018 28/11/2018
1650064 MARCELO ANTONIO CONTERATO 8637/2018 D 02 02/09/2018 17/09/2018 03/09/2018
1770222 MARCELO BARBALHO PEREIRA 5894/2018 D 01 01/03/2018 15/06/2018 02/03/2018
1266632 MARCELO DUTRA ARBO 6469/2018 A 02 06/07/2018 19/07/2018 07/07/2018
2612533 MARCELO FARENZENA 463/2019 D 02 16/10/2018 29/11/2018 17/10/2018
2616590 MARCELO GOTZ 5833/2018 D 01 19/08/2017 12/06/2018 20/08/2017
2442514 MARCELO LEANDRO EICHLER 1013/2019 C 02 02/06/2018 10/12/2018 03/06/2018
1211184 MARCELO MAGALHÃES FOOHS 10439/2018 D 02 09/12/2018 16/12/2018 10/12/2018
2316399 MARCELO MELLER ALIEVI 2493/2018 D 03 27/01/2018 02/04/2018 28/01/2018
1850585 MARCELO MILAN 1583/2019 C 03 21/02/2015 21/12/2018 22/02/2015
3526000 MARCELO NOGUEIRA CORTIMIGLIA 1871/2019 C 04 13/01/2019 02/02/2019 14/01/2019
2522851 MARCELO PRIEBE GIL 7235/2018 D 03 30/08/2018 02/09/2018 31/08/2018
2325485 MARCELO RUSCHEL TRASEL 9973/2018 A 02 13/07/2018 25/09/2018 14/07/2018
Documento gerado sob autenticação Nº FOP.419.306.T7G, disponível no
endereço http://www.ufrgs.br/autenticacao
Documento certificado eletronicamente, conforme Portaria nº
3362/2016, que institui o Sistema de Documentos Eletrônicos da UFRGS.
10/14
SIAPE Nome do Servidor PortariaAnterior
Progressão
para
Classe/Nível
Fim
Interstício
Vigência
Financeira
Anterior
Nova
Vigência
Financeira
1549244 MARCELO SCHMITZ 3297/2019 D 03 19/02/2019 24/02/2019 20/02/2019
1550584 MARCELO WALTER 9221/2018 D 03 15/09/2018 03/10/2018 16/09/2018
1801792 MARCIA DUTRA DE BARCELLOS 7901/2018 D 01 29/07/2018 01/08/2018 30/07/2018
1061442 MARCIA ELISA SOARES ECHEVESTE 5930/2018 D 04 31/12/2017 13/04/2018 01/01/2018
1090439 MARCIA HELOISA TAVARES DE FIGUEREDO LIMA 10610/2018 A 02 12/06/2018 27/11/2018 13/06/2018
1342291 MARCIA KAUER SANT ANNA 2518/2019 D 02 15/01/2019 30/01/2019 16/01/2019
1537877 MARCIA MONKS JANTZEN 3558/2019 D 02 02/03/2019 07/03/2019 03/03/2019
1017907 MARCIA MOURA DA SILVA 7991/2018 A 02 14/06/2018 10/09/2018 15/06/2018
1566373 MARCIO BORGES MARTINS 2651/2018 D 02 26/02/2017 10/04/2018 27/02/2017
1977366 MARCIO DORN 1598/2019 C 04 30/10/2018 23/01/2019 31/10/2018
1984314 MARCIO GABRIEL DOS SANTOS 7691/2018 C 03 21/07/2018 20/08/2018 22/07/2018
1205860 MARCIO LAZZAROTTO 8541/2018 D 02 01/10/2016 08/10/2018 02/10/2016
2254120 MARCO ANTONIO PEREIRA TEIXEIRA 7096/2018 D 03 20/09/2016 21/08/2018 21/09/2016
1164823 MARCO AURELIO CHAVES CEPIK 3013/2018 E 01 18/02/2018 20/02/2018 19/02/2018
1146269 MARCO FRIDOLIN SOMMER DOS SANTOS 3795/2018 D 02 31/12/2016 27/03/2018 01/01/2017
2195332 MARCOS GOLDNADEL 9715/2018 D 02 06/08/2016 24/11/2018 07/08/2016
1805628 MARCOS JOSE LEITE SANTOS 7419/2018 D 01 03/08/2018 14/08/2018 04/08/2018
2525325 MARCUS ROLF PETER RITT 7095/2018 D 03 25/08/2018 27/08/2018 26/08/2018
2251619 MARCUS VINICIUS MARTINS COLLARES 3851/2018 C 04 09/08/2016 21/03/2018 10/08/2016
0351433 MARGARITA ANA RUBIN UNICOVSKY 6585/2018 D 03 12/10/2017 29/06/2018 13/10/2017
2211551 MARIA APARECIDA BERGAMASCHI 7986/2018 D 03 09/08/2018 30/08/2018 10/08/2018
1769753 MARIA CAROLINA GUILHERME ERHARDT 5932/2018 D 01 08/03/2018 16/03/2018 09/03/2018
2328461 MARIA CECILIA BUENO FISCHER 7414/2018 A 02 04/08/2018 21/08/2018 05/08/2018
2328918 MARIA CRISTINA CERESER PEZZELLA 10436/2018 A 02 02/08/2018 11/12/2018 03/08/2018
1766644 MARIA DO CARMO GONÇALVES CURTIS 2322/2019 C 02 18/02/2018 08/02/2019 19/02/2018
2448299 MARIA DO CARMO MARTINS ALVES 6106/2018 D 03 18/05/2018 11/06/2018 19/05/2018
0359327 MARIA DO ROCIO FONTOURA TEIXEIRA 3293/2018 C 04 18/12/2017 06/03/2018 19/12/2017
2336550 MARIA ELLY HERZ GENRO 6156/2018 D 02 29/01/2018 15/03/2018 30/01/2018
1149748 MARIA INES REINERT AZAMBUJA 2774/2018 C 02 20/12/2005 12/04/2018 21/12/2005
2577132 MARIA IVANICE VENDRUSCOLO 2491/2018 C 02 05/11/2017 27/03/2018 06/11/2017
0354093 MARIA IZABEL SARAIVA NOLL 3575/2018 D 04 25/08/2017 27/04/2018 26/08/2017
0357351 MARIA LUIZA ADAMS SANVITTO 10438/2018 D 01 10/11/2018 07/12/2018 11/11/2018
0357850 MARIA LUZIA CHOLLOPETZ DA CUNHA 1686/2019 D 04 30/12/2018 10/01/2019 31/12/2018
0358493 MARIA PAULA GONCALVES FACHIN 3646/2019 C 02 31/10/2001 03/04/2019 01/11/2001
1517206 MARIANA BALDI 3551/2019 D 03 08/03/2019 19/03/2019 09/03/2019
2508603 MARIANA BOESSIO VIZZOTTO 3293/2019 C 04 21/02/2019 11/03/2019 22/02/2019
1212177 MARIANA RECAMONDE MENDOZA GUERREIRO 7415/2018 A 02 28/06/2018 09/08/2018 29/06/2018
1945395 MARILIA FORGEARINI NUNES 3296/2018 A 02 24/01/2018 07/03/2018 25/01/2018
1768038 MARILIA PATTA RAMOS 3355/2018 D 01 23/02/2018 27/04/2018 24/02/2018
1919303 MARILICE VILLEROY CORONA 9552/2018 C 03 26/02/2016 05/10/2018 27/02/2016
1806584 MARILISE OLIVEIRA MESQUITA 7891/2018 D 01 08/08/2018 06/09/2018 09/08/2018
1791355 MARINA CONCLI LEITE 6214/2018 D 01 16/06/2018 18/06/2018 17/06/2018
1299103 MARINO MUXFELDT BIANCHIN 9449/2018 D 03 03/09/2018 13/09/2018 04/09/2018
1253587 MARIO REIS ALVARES DA SILVA 5937/2018 D 02 29/11/2017 22/02/2018 30/11/2017
2174859 MARION DIVERIO FARIA POZZI 6160/2018 C 03 26/08/2017 13/06/2018 27/08/2017
1579510 MARKUS CHAGAS STEIN 6664/2018 B 02 14/01/2013 07/08/2018 15/01/2013
1107117 MARTA SILVEIRA PEIXOTO 9554/2018 D 03 30/08/2018 09/11/2018 31/08/2018
2305826 MATHEUS CORREIA DOS SANTOS 3973/2018 A 02 17/04/2018 27/04/2018 18/04/2018
1718759 MAURICIO ASSUMPÇÃO MOYA 421/2019 C 03 30/09/2013 29/11/2018 01/10/2013
0357455 MAURO GUIDOTTI AQUINI 4013/2018 C 01 16/12/2002 15/05/2018 17/12/2002
0357455 MAURO GUIDOTTI AQUINI 6206/2018 C 02 16/12/2006 08/06/2018 17/12/2006
1914971 MAURO RIEGERT BORBA 2147/2019 A 02 22/12/2018 17/01/2019 23/12/2018
1042986 MAURO SILVEIRA DE CASTRO 1488/2019 D 04 19/12/2018 03/01/2019 20/12/2018
2526019 MAXIMILIANO SEGALA 2328/2019 C 02 23/01/2019 31/01/2019 24/01/2019
Documento gerado sob autenticação Nº FOP.419.306.T7G, disponível no
endereço http://www.ufrgs.br/autenticacao
Documento certificado eletronicamente, conforme Portaria nº
3362/2016, que institui o Sistema de Documentos Eletrônicos da UFRGS.
11/14
SIAPE Nome do Servidor PortariaAnterior
Progressão
para
Classe/Nível
Fim
Interstício
Vigência
Financeira
Anterior
Nova
Vigência
Financeira
2940161 MÁXIMO DANIEL LAMELA ADÓ 6162/2018 A 02 08/05/2018 17/05/2018 09/05/2018
1577185 MENDELI HENNING VAINSTEIN 6291/2018 C 04 19/12/2017 02/07/2018 20/12/2017
2449508 MICHEL JOSE ANZANELLO 3126/2018 D 01 16/02/2018 28/02/2018 17/02/2018
1767024 MILENA DA ROSA SILVA 3679/2018 D 01 25/02/2018 18/04/2018 26/02/2018
1545280 MILENE JORGE ALIVERTI 7150/2018 C 03 07/08/2018 29/08/2018 08/08/2018
2309217 MILTON ANDRE TUMELERO 7416/2018 A 02 24/04/2018 11/09/2018 25/04/2018
1523563 MIRIAM DE SOUZA ROSSINI 2535/2018 D 02 05/03/2016 04/04/2018 06/03/2016
1768450 MIRIAM THAIS GUTERRES DIAS 3770/2018 D 01 28/02/2018 18/05/2018 01/03/2018
2214528 MIRNA BAINY LEAL 3843/2018 D 04 28/03/2018 21/05/2018 29/03/2018
1953677 MONIKA MARIA STUMPP 3969/2018 C 02 21/12/2017 16/05/2018 22/12/2017
2028836 MORGANA BAZZAN DESSUY 6058/2018 C 02 19/05/2018 22/05/2018 20/05/2018
1801774 NATÁLIA DE LACERDA GIL 9990/2018 D 01 19/07/2018 27/10/2018 20/07/2018
2174689 NELTON LUIS DRESCH 3674/2018 D 01 14/10/2017 10/05/2018 15/10/2017
1253799 NEUSA SICA DA ROCHA 6319/2018 C 02 02/06/2018 19/06/2018 03/06/2018
1531987 NILTON MULLET PEREIRA 5934/2018 D 03 23/05/2018 31/05/2018 24/05/2018
1853712 NISIA MARTINS DO ROSARIO 2492/2018 C 04 13/03/2017 02/04/2018 14/03/2017
0357083 NORBERTO DANI 9440/2018 D 01 31/12/2006 10/10/2018 01/01/2007
0358564 ODONE SANGUINE 10605/2018 D 04 06/01/2018 21/11/2018 07/01/2018
1824179 OLAVO RAMALHO MARQUES 3678/2018 A 02 13/12/2017 26/02/2018 14/12/2017
1662158 ONILDA SANTOS DA SILVA 9986/2018 D 02 03/11/2018 05/11/2018 04/11/2018
2414354 OSCAR WILLIAM PEREZ LOPEZ 6769/2018 D 03 12/04/2018 18/06/2018 13/04/2018
1784719 OSWALDO BAPTISTA DE SOUZA JUNIOR 3850/2018 C 02 18/04/2013 20/04/2018 19/04/2013
1784719 OSWALDO BAPTISTA DE SOUZA JUNIOR 5887/2018 C 03 18/04/2015 30/05/2018 19/04/2015
1975263 PAOLO RECH 9379/2018 C 04 15/10/2018 26/10/2018 16/10/2018
1529106 PATRICIA ASHTON PROLLA 6103/2018 D 01 30/07/2017 08/06/2018 31/07/2017
1096909 PATRÍCIA CAMINI 6080/2018 A 02 13/04/2018 28/06/2018 14/04/2018
1193435 PATRICIA VALENTE DA SILVA 7674/2018 E 01 06/09/2018 24/09/2018 07/09/2018
2686261 PAULA BETTIO STAUDT 2706/2019 C 04 16/12/2018 28/12/2018 17/12/2018
2028524 PAULA MASTROBERTI 7673/2018 C 02 21/05/2018 27/08/2018 22/05/2018
1766518 PAULA SANDRINE MACHADO 3298/2018 D 01 18/02/2018 18/04/2018 19/02/2018
2616218 PAULA VIVIANE RAMOS 6105/2018 D 01 24/02/2018 01/03/2018 25/02/2018
6354734 PAULO ANTONIO DE MENEZES PEREIRA DA SILVEIRA 9438/2018 D 01 20/07/2018 25/09/2018 21/07/2018
1535113 PAULO AUGUSTO NETZ 9799/2018 D 03 24/05/2018 25/10/2018 25/05/2018
2036798 PAULO BAPTISTA CARUSO MACDONALD 7094/2018 C 02 20/06/2018 26/06/2018 21/06/2018
3300156 PAULO BERNARDO RENAULT INDA 7146/2018 C 03 24/01/2018 13/08/2018 25/01/2018
1258734 PAULO CAUHY PETRY 7169/2018 D 03 08/01/2018 28/08/2018 09/01/2018
1812992 PAULO FERNANDO BRUNO GONCALVES 7418/2018 D 01 18/08/2018 23/08/2018 19/08/2018
1466377 PAULO HENRIQUE SCHNEIDER 6043/2018 D 03 24/05/2018 19/06/2018 25/05/2018
1520605 PAULO PEIXOTO DE ALBUQUERQUE 9796/2018 D 03 08/06/2018 29/10/2018 09/06/2018
3870924 PAULO ROBERTO ECKERT 3054/2019 A 02 14/02/2019 20/02/2019 15/02/2019
0409354 PAULO ROBERTO RODRIGUES SOARES 7233/2018 D 03 22/06/2018 13/08/2018 23/06/2018
2294102 PAULO SALVADORETTI 1394/2019 D 03 31/10/2017 26/12/2018 01/11/2017
1769324 PEDRO DE ALMEIDA COSTA 3841/2018 D 01 28/02/2018 27/04/2018 01/03/2018
1769707 PEDRO RAFAEL BOLOGNESE FERNANDES 558/2019 D 01 31/08/2018 11/12/2018 01/09/2018
1310315 PEDRO SCHESTATSKY 9982/2018 C 03 07/01/2017 09/08/2018 08/01/2017
1369855 PEDRO VIEIRA DA SILVA MAGALHÃES 6320/2018 C 02 19/06/2018 21/06/2018 20/06/2018
1361641 PRISCILA FERNANDA DA SILVEIRA TIECHER 3565/2019 A 02 19/02/2019 11/03/2019 20/02/2019
2706920 PRISCILLA TESCH SPINELLI 3333/2018 C 04 18/04/2017 29/06/2017 19/04/2017
2258922 RAFAEL AISLAN AMARAL 3680/2018 A 02 26/10/2017 20/03/2018 27/10/2017
2687227 RAFAEL COSTA RODRIGUES 6405/2018 D 01 13/06/2018 25/06/2018 14/06/2018
2035627 RAFAEL DE CARVALHO MATIELLO BRUNHARA 3556/2019 C 02 02/03/2019 31/03/2019 03/03/2019
1565975 RAFAEL GOMES DIONELLO 6152/2018 D 02 30/12/2017 10/05/2018 31/12/2017
1440722 RAFAEL MENDONÇA DA SILVA CHAKR 5831/2018 A 02 18/01/2018 07/06/2018 19/01/2018
1190505 RAFAEL MENEZES NUNES 3568/2019 A 02 09/02/2019 20/02/2019 10/02/2019
Documento gerado sob autenticação Nº FOP.419.306.T7G, disponível no
endereço http://www.ufrgs.br/autenticacao
Documento certificado eletronicamente, conforme Portaria nº
3362/2016, que institui o Sistema de Documentos Eletrônicos da UFRGS.
12/14
SIAPE Nome do Servidor PortariaAnterior
Progressão
para
Classe/Nível
Fim
Interstício
Vigência
Financeira
Anterior
Nova
Vigência
Financeira
2190466 RAFAEL ROESLER 6954/2018 D 04 12/08/2017 29/03/2018 13/08/2017
1812088 RAFAEL STIELER 3734/2019 C 02 27/01/2019 22/03/2019 28/01/2019
1296543 RAPHAEL MARTINS BRUM 2450/2019 A 02 07/02/2019 20/02/2019 08/02/2019
2611124 RAPHAEL ZILLIG 6166/2018 D 01 11/02/2018 11/05/2018 12/02/2018
1853404 RAQUEL GIULIAN 7417/2018 C 04 01/03/2018 05/09/2018 02/03/2018
1960620 REGINA ANTUNES TEIXEIRA DOS SANTOS 7148/2018 C 04 03/08/2018 28/08/2018 04/08/2018
0356828 REGINA RIGATTO WITT 3545/2019 D 04 09/03/2019 15/03/2019 10/03/2019
1803935 REGINA ZILBERMAN 2554/2019 D 01 30/01/2019 22/02/2019 31/01/2019
1457830 RENAN RANGEL BONAMIGO 1783/2019 D 03 02/11/2018 19/11/2018 03/11/2018
3037876 RENATA PEREIRA LIMBERGER 3015/2018 D 03 27/01/2018 13/04/2018 28/01/2018
1754114 RENATA ROCHA KIELING 556/2019 A 02 08/08/2018 24/08/2018 09/08/2018
0354991 RENATO ARTHUR PAIM HALFEN 9225/2018 D 03 24/08/2018 15/10/2018 25/08/2018
0359379 RENATO HOLMER FIORE 3635/2018 D 01 30/12/2014 09/04/2018 31/12/2014
2950341 RENATO JOSE DE MARCHI 3553/2019 C 02 07/01/2019 01/04/2019 08/01/2019
1341935 RENATO SELIGMAN 6329/2018 D 03 28/03/2018 19/07/2018 29/03/2018
2241625 RENATO VENTURA BAYAN HENRIQUES 5946/2018 D 03 02/02/2018 07/06/2018 03/02/2018
2322787 RENE FAUSTINO GABRIEL JUNIOR 8832/2018 A 02 10/07/2018 01/10/2018 11/07/2018
1240201 RICARDO MISTURINI 5931/2018 A 02 18/01/2018 24/05/2018 19/01/2018
2714174 RITA DO CARMO FERREIRA LAIPELT 3303/2018 C 02 30/06/2017 03/05/2018 01/07/2017
1529756 RITA LENIRA DE FREITAS BITTENCOURT 7671/2018 D 03 10/08/2018 06/09/2018 11/08/2018
1760280 ROBERTA ALVARENGA REIS 5962/2018 D 01 09/02/2018 10/04/2018 10/02/2018
2442512 ROBERTA CRUZ SILVEIRA THYS 6666/2018 D 01 29/07/2018 06/08/2018 30/07/2018
1133108 ROBERTA RIGO DALLA CORTE 5896/2018 A 02 02/03/2018 19/06/2018 03/03/2018
2612505 ROBERTO CHOUHY LEBORGNE 6645/2018 D 01 29/06/2018 05/07/2018 30/06/2018
0357390 ROBERTO PETRY HOMRICH 5832/2018 D 04 30/01/2018 10/05/2018 31/01/2018
1510542 RODRIGO BUSTOS SINGER 6047/2018 D 01 28/09/2013 26/06/2018 29/09/2013
2375719 RODRIGO DE LEMOS PERONI 8853/2018 D 03 23/04/2018 22/08/2018 24/04/2018
2194286 RODRIGO NUNEZ 3302/2018 C 03 09/01/2015 16/01/2018 10/01/2015
2414313 RODRIGO ORSINI BRAGA 3546/2019 A 02 14/03/2019 08/04/2019 15/03/2019
1764279 RODRIGO ROSSI 3444/2018 D 01 17/02/2018 09/04/2018 18/02/2018
1880288 RODRIGO SABALLA DE CARVALHO 9550/2018 A 02 17/08/2018 19/10/2018 18/08/2018
2646240 RODRIGO SYCHOCKI DA SILVA 7413/2018 A 02 20/07/2018 06/09/2018 21/07/2018
2203432 ROGER KELLER CELESTE 2991/2018 D 01 02/03/2018 16/03/2018 03/03/2018
1058315 ROGERIO JOSE MARCZAK 7903/2018 E 01 20/07/2018 01/08/2018 21/07/2018
2299297 ROGERIO LUIS MALTEZ 6317/2018 D 03 11/09/2017 12/06/2018 12/09/2017
1721916 ROGERIO PASSOS SEVERO 9555/2018 A 02 17/08/2018 19/11/2018 18/08/2018
0388065 ROMINA BATISTA DE LUCENA DE SOUZA 10609/2018 D 02 04/12/2018 12/12/2018 05/12/2018
2926491 ROSA MARIA CASTILHOS FERNANDES 9980/2018 C 02 05/11/2018 04/12/2018 06/11/2018
1766091 ROSA MARIA MARTINS DE ALMEIDA 2773/2018 D 01 25/02/2018 12/04/2018 26/02/2018
1228937 ROSANE GOMEZ 7985/2018 D 01 04/08/2018 15/08/2018 05/08/2018
2578179 ROSANE MICHELE DUARTE SOARES 3061/2019 C 04 30/05/2017 23/12/2018 31/05/2017
1543612 ROSÂNGELA ASSIS JACQUES 7240/2018 D 03 24/08/2018 31/08/2018 25/08/2018
1769502 ROSELENE RICACHENEVSKY GURSKI 3447/2018 D 01 24/02/2018 18/04/2018 25/02/2018
1621886 ROSEMARIE GARTNER TSCHIEDEL 3035/2018 D 01 17/03/2016 21/04/2018 18/03/2016
2322060 ROZANE RODRIGUES REBECHI 7983/2018 A 02 30/06/2018 30/08/2018 01/07/2018
1105977 RUY CARLOS RUVER BECK 3476/2018 D 03 23/02/2018 23/03/2018 24/02/2018
1253282 RUY SILVEIRA MORAES FILHO 3968/2018 D 02 29/11/2017 27/02/2018 30/11/2017
1523778 SAMIR MAGHOUS 3332/2018 D 03 07/03/2018 23/03/2018 08/03/2018
1527311 SANDRA CRISTINA MULLER 7734/2018 D 03 23/07/2018 13/09/2018 24/07/2018
2418216 SANDRA DOS SANTOS ANDRADE 8373/2018 D 01 08/06/2018 12/09/2018 09/06/2018
2310265 SANDRA LIANA HENZ 6158/2018 D 02 22/12/2017 27/04/2018 23/12/2017
1268431 SANDRA MARIA GONÇALVES VIEIRA 8228/2018 C 02 22/08/2012 03/09/2018 23/08/2012
1721602 SANDRO RUDUIT GARCIA 7093/2018 D 01 13/07/2018 08/08/2018 14/07/2018
2611175 SAULO PETINATTI PAVARINI 6052/2018 C 04 18/04/2018 15/05/2018 19/04/2018
Documento gerado sob autenticação Nº FOP.419.306.T7G, disponível no
endereço http://www.ufrgs.br/autenticacao
Documento certificado eletronicamente, conforme Portaria nº
3362/2016, que institui o Sistema de Documentos Eletrônicos da UFRGS.
13/14
SIAPE Nome do Servidor PortariaAnterior
Progressão
para
Classe/Nível
Fim
Interstício
Vigência
Financeira
Anterior
Nova
Vigência
Financeira
3359392 SAULO ROCA BRAGANCA 1009/2019 D 03 03/04/2018 10/01/2019 04/04/2018
1051298 SERGIO BAPTISTA DA SILVA 813/2019 E 01 18/12/2018 26/12/2018 19/12/2018
1526263 SERGIO DE MOURA MENUZZI 9717/2018 D 02 04/11/2016 14/11/2018 05/11/2016
2620180 SERGIO LEANDRO DOS SANTOS 6157/2018 C 02 17/02/2018 13/06/2018 18/02/2018
1319503 SERGIO LUIS CECHIN 6351/2018 D 04 03/06/2018 05/07/2018 04/06/2018
1769139 SERGIO LUIS HAFFNER 3128/2018 D 01 22/02/2018 21/03/2018 23/02/2018
1251748 SERGIO PINTO RIBEIRO 6107/2018 C 04 03/03/2011 14/03/2018 04/03/2011
2507064 SIDINEI ROCHA DE OLIVEIRA 5952/2018 D 01 27/02/2018 30/04/2018 28/02/2018
3490696 SILVANA CORBELLINI 424/2019 A 02 15/09/2018 04/01/2019 16/09/2018
2452366 SILVANA INES WOLKE 6085/2018 D 01 29/05/2016 07/06/2018 30/05/2016
1127202 SILVANA KRAUSE 8640/2018 D 04 03/05/2018 21/08/2018 04/05/2018
2244043 SILVIA ALTMANN 2951/2018 D 04 27/07/2017 13/04/2018 28/07/2017
1542880 SILVIO BUCHNER 7144/2018 A 02 29/06/2018 29/08/2018 30/06/2018
2279986 SIMONE ALGERI 7889/2018 D 03 10/06/2018 19/09/2018 11/06/2018
2272318 SIMONE BICCA CHARCZUK 10614/2018 A 02 11/01/2018 06/12/2018 12/01/2018
1531173 SIMONE MAINIERI PAULON 6316/2018 D 03 12/04/2018 21/06/2018 13/04/2018
2490312 SIMONE MUNDSTOCK JAHNKE 6164/2018 D 02 24/08/2017 10/05/2018 25/08/2017
2559401 SINTHIA CRISTINA BATISTA 1014/2019 C 03 04/05/2018 16/12/2018 05/05/2018
2099597 SOLANGE MITTMANN 4078/2018 D 03 17/04/2017 01/06/2018 18/04/2017
1252457 SONIA BEATRIZ COCARO DE SOUZA 7888/2018 D 04 30/07/2018 17/09/2018 31/07/2018
1166755 SONIA MARIA RANINCHESKI 2979/2018 D 02 07/11/2017 02/04/2018 08/11/2017
1288761 STELA MARIS DE JEZUS CASTRO 6046/2018 D 01 30/05/2018 04/06/2018 31/05/2018
1766933 STELA NAZARETH MENEGHEL 3761/2018 D 01 22/02/2018 19/04/2018 23/02/2018
1919334 STELLA DE FARIA VALLE 6055/2018 C 04 27/02/2018 11/04/2018 28/02/2018
2686825 SUELEN ASSUNCAO SANTOS 8679/2018 A 02 08/08/2018 17/08/2018 09/08/2018
0267455 SUELI MARIA GOULART SILVA 2464/2019 D 03 15/02/2019 21/02/2019 16/02/2019
2176043 SUSANA CARDOSO 3359/2018 D 03 25/09/2017 05/04/2018 26/09/2017
2273718 SUSANA FROMETA FERNANDEZ 6193/2018 A 02 04/06/2018 19/06/2018 05/06/2018
1193303 SUZANE WEBER DA SILVA 6213/2018 D 01 30/01/2018 19/06/2018 31/01/2018
1187724 TADEU DE PAULA SOUZA 9346/2018 A 02 31/03/2018 09/07/2018 01/04/2018
2190495 TADEU MELLO E SOUZA 6290/2018 D 04 17/03/2018 29/06/2018 18/03/2018
2316711 TALES TIECHER 6325/2018 A 02 31/05/2018 09/07/2018 01/06/2018
2322501 TANIA ALVES AMADOR 7992/2018 D 03 31/12/2016 05/09/2018 01/01/2017
1314989 TARLIZ LIAO 5891/2018 A 02 05/08/2017 21/05/2018 06/08/2017
2201492 TATIANA DA SILVA DUARTE 2536/2018 A 02 22/02/2017 16/01/2018 23/02/2017
3323220 TATIANA LUFT 5976/2018 C 04 25/07/2016 16/05/2018 26/07/2016
0354876 TELMO BANDEIRA BERTHOLD 9213/2018 D 03 08/12/2017 09/10/2018 09/12/2017
1317952 TERESINHA BARACHINI 8830/2018 C 03 05/06/2018 11/09/2018 06/06/2018
2769814 THAIS THOME FELDENS 3672/2018 C 04 30/07/2017 17/04/2018 31/07/2017
3335262 TIAGO BECKER 5950/2018 C 02 02/05/2018 11/05/2018 03/05/2018
2926271 TIAGO DEGANI VEIT 6292/2018 A 02 28/04/2018 28/06/2018 29/04/2018
2614035 TIAGO FIORINI 2145/2019 C 02 28/11/2018 19/12/2018 29/11/2018
1351281 UBIRATÃ KICKHOFEL ALVES 3771/2018 D 01 28/02/2018 19/04/2018 01/03/2018
1789524 VALERIA DA CRUZ VIANA LABREA 7902/2018 A 02 10/09/2017 30/08/2018 11/09/2017
1550432 VALTER ROESLER 8982/2018 D 03 17/08/2018 06/10/2018 18/08/2018
1549879 VANIA CALDAS DE SOUSA 9716/2018 D 03 22/08/2018 05/11/2018 23/08/2018
0358600 VERA LUCIA BERTONI DOS SANTOS 5936/2018 D 03 08/03/2018 12/06/2018 09/03/2018
2526608 VERA LÚCIA BOSA 7316/2018 D 01 06/07/2018 30/07/2018 07/07/2018
1344240 VINICIUS ANDRADE BREI 2513/2019 D 01 21/12/2018 17/01/2019 22/12/2018
2769952 VIRGÍLIO JOSÉ STRASBURG 6402/2018 C 03 30/03/2018 28/05/2018 31/03/2018
2250360 VIRGINIA LEISMANN MORETTO 7890/2018 D 01 20/09/2018 24/09/2018 21/09/2018
2174833 VIRGINIA MARIA ROSITO D'AVILA BESSA 3794/2018 D 04 29/12/2017 26/04/2018 30/12/2017
3565801 VIVIAN CHIADA MAINIERI HENKIN 423/2019 C 04 13/11/2018 23/11/2018 14/11/2018
1546365 VIVIANE PEREIRA MOREIRA 7171/2018 D 03 06/08/2018 10/08/2018 07/08/2018
Documento gerado sob autenticação Nº FOP.419.306.T7G, disponível no
endereço http://www.ufrgs.br/autenticacao
Documento certificado eletronicamente, conforme Portaria nº
3362/2016, que institui o Sistema de Documentos Eletrônicos da UFRGS.
14/14
SIAPE Nome do Servidor PortariaAnterior
Progressão
para
Classe/Nível
Fim
Interstício
Vigência
Financeira
Anterior
Nova
Vigência
Financeira
0408822 WASHINGTON PERES NUNEZ 7900/2018 E 01 20/07/2018 01/08/2018 21/07/2018
2507800 WILIAM WEGNER 2465/2019 C 02 27/01/2019 06/02/2019 28/01/2019
1803969 WLADIMIR BARRETO LISBOA 7318/2018 D 01 02/08/2018 15/08/2018 03/08/2018
1985998 ZILDA ELISABETH DE ALBUQUERQUE SANTOS 2856/2019 C 04 09/12/2018 29/01/2019 10/12/2018
1530932 ZITA ROSANE POSSAMAI 9985/2018 D 03 02/05/2018 13/11/2018 03/05/2018
JANE FRAGA TUTIKIAN
Vice-Reitora.
