1 
 
 
 
 
 
 
 
 
Boletim de Serviço 
Dezembro 
2012 
 
 
 
 
 
 
 
 
 
 
 
 
 
 
 
 
 
 
 
Campus Avançado Ibirubá 
Rua Nelsi Ribas Fritsch, 1111 - Bairro Esperança 
CEP: 98200-000 – Ibirubá – RS 
 
 
Comissão Responsável pela elaboração, impressão e distribuição: 
Cristiane Brauner 
Fernando Leão 
Luana Dapper 
Monique Lorenson 
 
 
2 
 
 
 
 
 
 
 
 
MINISTÉRIO DA EDUCAÇÃO – MEC 
Ministro 
Aloízio Mercadante Oliva 
 
SECRETARIA DE EDUCAÇÃO PROFISSIONAL E TECNOLÓGICA – SETEC 
Secretário 
Marco Antônio de Oliveira 
 
INSTITUTO FEDERAL DE EDUCAÇÃO, CIÊNCIA E TECNOLOGIA DO RIO 
GRANDE DO SUL 
Reitora 
Claudia Schiedeck Soares de Souza 
 
CAMPUS AVANÇADO IBIRUBÁ 
Diretora-Geral 
Migacir Trindade Duarte Flôres 
 
 
 
 
 
 
 
 
 
 
 
3 
 
 
 
INSTITUTO FEDERAL DE EDUCAÇÃO, CIÊNCIA E TECNOLOGIA  
DO RIO GRANDE DO SUL – CAMPUS AVANÇADO IBIRUBÁ 
 
 
 
 
ANIVERSARIANTES 
 
 
 
  
 
4 
 
 
 
 
 
 
 
 
 
 
 
 
 
 
 
 
 
 
 
 
 
 
 
5 
 
 
Boletim de Serviço Nº 06/2012 
INSTITUTO FEDERAL DE EDUCAÇÃO, CIÊNCIA E TECNOLOGIA  
DO RIO GRANDE DO SUL – CAMPUS AVANÇADO IBIRUBÁ 
Sumário 
I – PORTARIAS.........................................................................................................................6 
II – ORDENS DE SERVIÇO....................................................................................................13 
III – CONCESSÃO DE DIÁRIAS...........................................................................................13 
IV – FÉRIAS............................................................................................................................25 
 
 
 
 
 
 
 
 
 
 
 
 
 
 
 
 
 
 
 
 
 
 
 
 
 
 
6 
 
 
Boletim de Serviço Nº 06/2012 
I – PORTARIAS 
 
PORTARIA Nº 141 DE 07 DE DEZEMBRO DE 2012. 
 
 
  A DIRETORA GERAL PRÓ-TEMPORE DO INSTITUTO FEDERAL DE 
EDUCAÇÃO, CIÊNCIA E TECNOLOGIA DO RIO GRANDE DO SUL – CAMPUS 
AVANÇADO IBIRUBÁ, no uso de suas atribuições legais subdelegadas pela Portaria nº 285, 
de 01 de abril de 2011, publicado no DOU de 04 de abril de 2011, RESOLVE: 
 
  DESIGNAR o servidor MARCELO LIMA CALIXTO, Professor do Ensino 
Básico, Técnico e Tecnológico, matrícula Siape nº 1847670, para responder como substituto 
da Direção Geral, código CD-03, do IFRS – Campus de Ibirubá, na ausência do Titular, 
servidora MIGACIR TRINDADE DUAR FLORES, matrícula Siape nº 2104561. 
 
Profª. Migacir Trindade Duarte Flôres 
Diretora Geral "Pro tempore" 
 
 
PORTARIAS DE 07 DE DEZEMBRO DE 2012. 
 
 
  O DIRETOR GERAL EM EXERCÍCIO DO INSTITUTO FEDERAL DE 
EDUCAÇÃO, CIÊNCIA E TECNOLOGIA DO RIO GRANDE DO SUL – CAMPUS 
AVANÇADO IBIRUBÁ, no uso de suas atribuições legais subdelegadas pela Portaria nº 141, 
de 01 de abril de 2011, publicado no DOU de 05 de dezembro de 2012, RESOLVE: 
 
  N°142 - DESIGNAR a servidora LUANA MARIS MORAVSKI DAPPER, 
Auxiliar de Administração, matrícula Siape nº 1982592, para a função de Coordenadora de 
Gestão de Pessoas, Código FG-0002, do IFRS – Campus de Ibirubá. 
 
  N°143 - DESIGNAR o servidor FERNANDO DE OLIVEIRA LEÃO, Técnico 
Audiovisual, matrícula Siape nº 1982901, para a função de Chefe de Gabinete, Código FG-
0002, do IFRS – Campus de Ibirubá. 
 
Prof. Marcelo Lima Calixto 
Diretor Geral em Exercício 
Port. N° 141/2012 
 
 
 
 
 
7 
 
 
PORTARIA Nº 144 DE 13 DE DEZEMBRO DE 2012. 
 
 
  A DIRETORA GERAL PRÓ-TEMPORE DO INSTITUTO FEDERAL DE 
EDUCAÇÃO, CIÊNCIA E TECNOLOGIA DO RIO GRANDE DO SUL – CAMPUS 
AVANÇADO IBIRUBÁ, no uso de suas atribuições legais subdelegadas pela Portaria nº 285, 
de 01 de abril de 2011, publicado no DOU de 04 de abril de 2011, RESOLVE: 
 
 DESIGNAR os servidores André Luis Marcondes, SIAPE nº 1982908, André Marek, 
SIAPE nº 1982915, Cristiane Brauner, SIAPE nº 1982614, Alexandre Urbano Hoffmann, 
SIAPE nº 1795569, Monique Salete Lorenzon, SIAPE nº 1828165, e Sandro Lemos de 
Oliveira, SIAPE nº 1982911, para sob a presidência do primeiro comporem a Comissão 
Permanente de Inventário Patrimonial que, no prazo de 60 dias, será responsável por realizar 
o inventário patrimonial do  IFRS – Campus Ibirubá. 
 
Profª. Migacir Trindade Duarte Flôres 
Diretora Geral "Pro tempore"  
 
PORTARIA Nº 145 DE 13 DE DEZEMBRO DE 2012. 
 
 
  A DIRETORA GERAL PRÓ-TEMPORE DO INSTITUTO FEDERAL DE 
EDUCAÇÃO, CIÊNCIA E TECNOLOGIA DO RIO GRANDE DO SUL – CAMPUS 
AVANÇADO IBIRUBÁ, no uso de suas atribuições legais subdelegadas pela Portaria nº 285, 
de 01 de abril de 2011, publicado no DOU de 04 de abril de 2011, RESOLVE: 
 
 DESIGNAR os servidores Alexandre Urbano Hoffman, SIAPE nº 1795569, André 
Marek, SIAPE nº 1982915, Cristiane Brauner, SIAPE nº 1982614, e Daiane  Toigo Trentin, 
SIAPE nº 1823868, para sob a presidência do primeiro comporem a comissão responsável 
pelo acompanhamento das obras de Reforma do Ginásio Poliesportivo e dos Banheiro e 
Vestiários do Módulo Esportivo do IFRS – Campus Ibirubá. 
 
 
Profª. Migacir Trindade Duarte Flôres 
Diretora Geral "Pro tempore"  
 
 
PORTARIA Nº 146 DE 13 DE DEZEMBRO DE 2012. 
 
 
 
  A DIRETORA GERAL PRÓ-TEMPORE DO INSTITUTO FEDERAL DE 
EDUCAÇÃO, CIÊNCIA E TECNOLOGIA DO RIO GRANDE DO SUL – CAMPUS 
AVANÇADO IBIRUBÁ, no uso de suas atribuições legais subdelegadas pela Portaria nº 285, 
de 01 de abril de 2011, publicado no DOU de 04 de abril de 2011, RESOLVE: 
8 
 
 
 
 DESIGNAR os servidores Cristiane Brauner, SIAPE nº 1982614, Fernando de 
Oliveira Leão, SIAPE nº 1982901, Luana Maris Moravski Dapper, SIAPE nº 1982592, e 
Monique Salete Lorenzon, SIAPE nº 1828165, para sob a presidência do primeiro comporem 
a comissão responsável pelo boletim de serviços do IFRS – Campus Ibirubá. 
 
 
Profª. Migacir Trindade Duarte Flôres 
Diretora Geral "Pro tempore" 
 
 
PORTARIA Nº 147 DE 13 DE DEZEMBRO DE 2012. 
 
 
  A DIRETORA GERAL PRÓ-TEMPORE DO INSTITUTO FEDERAL DE 
EDUCAÇÃO, CIÊNCIA E TECNOLOGIA DO RIO GRANDE DO SUL – CAMPUS 
AVANÇADO IBIRUBÁ, no uso de suas atribuições legais subdelegadas pela Portaria nº 285, 
de 01 de abril de 2011, publicado no DOU de 04 de abril de 2011, RESOLVE: 
 
 NOMEAR o servidor Aloísio Cortez, SIAPE nº 1943481, fiscal do contrato nº 
52/2012, referente às obras de Reforma do Ginásio Poliesportivo e dos Banheiro e Vestiários 
do Módulo Esportivo do IFRS – Campus Ibirubá. 
 
 
 
Profª. Migacir Trindade Duarte Flôres 
Diretora Geral "Pro tempore" 
 
 
 
PORTARIA Nº 148 DE 17 DE DEZEMBRO DE 2012. 
 
 
  A DIRETORA GERAL PRÓ-TEMPORE DO INSTITUTO FEDERAL DE 
EDUCAÇÃO, CIÊNCIA E TECNOLOGIA DO RIO GRANDE DO SUL – CAMPUS 
AVANÇADO IBIRUBÁ, no uso de suas atribuições legais subdelegadas pela Portaria nº 285, 
de 01 de abril de 2011, publicado no DOU de 04 de abril de 2011, RESOLVE: 
 
 DESIGNAR os servidores Maurício Lopes Lima, SIAPE nº 1770350, Edimilson 
Antônio Bravo Porto, SIAPE nº 1904198, Luís Cláudio Gubert, SIAPE nº 1781712, Milton 
José Busnello, SIAPE nº 1893291, e Robson Rigão da Silva, SIAPE nº 1823942, para sob a 
presidência do primeiro comporem a Comissão para normatizar a 
utilização das moradias Institucionais do IFRS - Câmpus Ibirubá, que 
após o término dos trabalhos deverá encaminhar o documento para 
9 
 
 
aprovação do Conselho de Câmpus. Prazo de conclusão dos trabalhos: 
02.03.2013.  
 
Profª. Migacir Trindade Duarte Flôres 
Diretora Geral "Pro tempore" 
 
 
PORTARIA Nº 149 DE 17 DE DEZEMBRO DE 2012. 
 
 
  A DIRETORA GERAL PRÓ-TEMPORE DO INSTITUTO FEDERAL DE 
EDUCAÇÃO, CIÊNCIA E TECNOLOGIA DO RIO GRANDE DO SUL – CAMPUS 
AVANÇADO IBIRUBÁ, no uso de suas atribuições legais subdelegadas pela Portaria nº 285, 
de 01 de abril de 2011, publicado no DOU de 04 de abril de 2011, RESOLVE: 
 
Art. 1º - CONSTITUIR a Comissão para a Banca de Seleção de Bolsistas - Professores, dos 
Cursos ministrados junto ao IFRS Campus Ibirubá, da Bolsa – Formação do Programa 
Nacional de Acesso ao Ensino Técnico e Emprego – PRONATEC, composta pelos servidores 
abaixo relacionados: 
- EDUARDO GIROTTO, Professor do Ensino Básico, Técnico e Tecnológico 
- MILENA SILVESTER QUADROS, Professora do Ensino Básico, Técnico e Tecnológico 
- ANDRÉ RICARDO DIERINGS, Professor do Ensino Básico, Técnico e Tecnológico 
- RAQUEL LORENSINI, Professora do Ensino Básico, Técnico e Tecnológico 
- MARCOS PAULO LUDWIG, Professor do Ensino Básico, Técnico e Tecnológico 
Art. 2º – A presidência da Comissão será exercida pelo servidor EDUARDO GIROTTO. 
Art. 3º – As atribuições da Comissão estão previstas no Edital Institucional de Extensão n° 
107/2012. 
Art. 4º – As atividades da Comissão deverão ser realizadas durante a jornada de trabalho 
regular de seus membros na Instituição. 
 
 
 
Profª. Migacir Trindade Duarte Flôres 
Diretora Geral "Pro tempore" 
 
 
PORTARIA Nº 150 DE 18 DE DEZEMBRO DE 2012. 
 
 
  A DIRETORA GERAL PRÓ-TEMPORE DO INSTITUTO FEDERAL DE 
EDUCAÇÃO, CIÊNCIA E TECNOLOGIA DO RIO GRANDE DO SUL – CAMPUS 
AVANÇADO IBIRUBÁ, no uso de suas atribuições legais subdelegadas pela Portaria nº 552 
de 21 de novembro de 2012, publicado no DOU de 22 de novembro de 2012, RESOLVE: 
 
10 
 
 
 DECRETAR recesso de final de ano para os servidores do Câmpus Ibirubá, no período 
do dia 24 de dezembro de 2012 ao dia 01 de janeiro de 2013, voltando às atividades normais 
no dia 02 de janeiro de 2013. Outrossim comunicamos que permanecerão em atividade alguns 
servidores da agropecuária e do financeiro, sendo que esses poderão usufruir dos dias de 
recesso em data posterior. 
 
 
Profª. Migacir Trindade Duarte Flôres 
Diretora Geral "Pro tempore" 
 
 
PORTARIAS DE 21 DE DEZEMBRO DE 2012. 
 
 
  A DIRETORA GERAL DO INSTITUTO FEDERAL DE EDUCAÇÃO, 
CIÊNCIA E TECNOLOGIA DO RIO GRANDE DO SUL – CAMPUS IBIRUBÁ, no uso de 
suas atribuições legais subdelegadas pela Portaria nº 552 de 21 de novembro de 2012, 
publicado no DOU de 22 de novembro de 2012, no uso de suas atribuições, RESOLVE: 
  
 Nº 151 - DISPENSAR o servidor MARCELO LIMA CALIXTO, Professor do Ensino 
Básico, Técnico e Tecnológico, matrícula Siape nº 1847670 da função de substituto da 
Direção Geral, código CD-03, do IFRS – Campus de Ibirubá. 
  
 Nº 152 - DESIGNAR o servidor MARCELO LIMA CALIXTO, Professor do Ensino 
Básico, Técnico e Tecnológico, matrícula Siape nº 1847670, para responder como substituto 
da Direção Geral, código CD-02, do IFRS – Campus de Ibirubá, na ausência do Titular, 
servidora MIGACIR TRINDADE DUAR FLORES, matrícula Siape nº 2104561. 
 
 Nº 153 - DESIGNAR a servidora MARIA INÊS SIMON, Pedagoga, matrícula Siape 
nº 1868081, para responder como substituta da Diretoria de Ensino, código CD-02 do IFRS – 
Campus de Ibirubá, na ausência do Titular, servidor MARCELO LIMA CALIXTO, matrícula 
Siape nº 1847670. 
 
 Nº 154 – DISPENSAR o servidor MÁRCIO LUIS PIOVESAN, Assistente em 
Administração, matrícula Siape nº 1826422 da função de substituto da Diretoria de 
Administração e Planejamento. 
 
 Nº 155 - DESIGNAR a servidora MAGALI TERESINHA DA SILVA, Contadora, 
matrícula Siape nº 1835765, para responder como substituta da Diretoria de Administração e 
Planejamento, código CD-02, do IFRS – Campus de Ibirubá, na ausência do Titular, servidor 
JOVANI JOSÉ ALBERTI, matrícula Siape nº 0995602. 
 
 Nº 156 - DESIGNAR a servidora LAURA GOTLEIB DA ROSA, Analista de 
Tecnologia da informação, matrícula Siape nº 1680548, para responder como substituta da 
Coordenadoria de Desenvolvimento Institucional, código FG-01, do IFRS – Campus de 
11 
 
 
Ibirubá, na ausência do Titular, servidor LUÍS CLÁUDIO GUBERT, matrícula Siape nº 
1781712. 
 
 Nº 157 – DISPENSAR a servidora TATIELE CECONELLO FEIL, Assistente de 
Alunos, matrícula Siape nº 1596220 da função de substituta da Coordenadoria de Extensão. 
 
 Nº 158 - DESIGNAR o servidor EDUARDO FERNANDES ANTUNES, Técnico de 
Tecnologia da Informação, matrícula Siape nº 1818514, para responder como substituto da 
Coordenadoria de Extensão, código FG-01, do IFRS – Campus de Ibirubá, na ausência do 
Titular, servidora RAQUEL LORENSINI ALBERTI, matrícula Siape nº 1306033. 
 
 Nº 159 - DESIGNAR a servidora FERNANDA SCHNEIDER, Professora do Ensino 
Básico, Técnico e Tecnológico, matrícula Siape nº 1823897, para responder como substituta 
da Coordenadoria de Pesquisa e Inovação, código FG-01, do IFRS – Campus de Ibirubá, na 
ausência do Titular, servidor BEN-HUR COSTA DE CAMPOS, matrícula Siape nº 1796124.  
 
 Nº 160 - DISPENSAR o servidor MILTON JOSÉ BUSNELLO, Técnico em 
Agropecuária, matrícula Siape nº, 1893291 da função de substituto da Coordenadoria de 
Produção Agropecuária. 
 
 Nº 161 - DESIGNAR o servidor DAGMAR PEDRO TAMANHO, Técnico em 
Agropecuária, matrícula Siape nº 1916911, para responder como substituto da Coordenadoria 
de Produção Agropecuária, código FG-01, do IFRS – Campus de Ibirubá, na ausência do 
Titular, servidor ELIÉZER JOSÉ PEGORARO, matrícula Siape nº 1686749. (Revogar a do 
Milton) 
 
 Nº 162 - DESIGNAR a servidora CRISTIANE BRAUNER, Auxiliar em 
Administração, matrícula Siape nº 1982614, para responder como substituta da 
Coordenadoria de Administração e Execução Orçamentária, código FG-02, do IFRS – 
Campus de Ibirubá, na ausência do Titular, servidora MAGÁLI TERESINHA DA SILVA, 
matrícula Siape nº 1835765.  
 
 Nº 163 - DESIGNAR o servidor SANDRO LEMOS OLIVEIRA, Técnico de 
Tecnologia da Informação, matrícula Siape nº 1982911, para responder como substituto da 
Coordenadoria de Tecnologia da Informação, código FG-02, do IFRS – Campus de Ibirubá, 
na ausência do Titular, servidor LAURA GOTLEIB DA ROSA, matrícula Siape nº 1680548.  
 
 Nº 164 - DESIGNAR a servidora MONIQUE SALETE LORENSON, Técnico de 
Laboratório, matrícula Siape nº 1828165, para responder como substituta da Chefia de 
Gabinete, código FG-02, do IFRS – Campus de Ibirubá, na ausência do Titular, servidor 
FERNANDO DE OLIVEIRA LEÃO, matrícula Siape nº 1982901. 
 
 Nº 165 - DESIGNAR o servidor ANDRÉ MARCONDES, Assistente em 
Administração, matrícula Siape nº 1982915, para responder como substituto da 
12 
 
 
Coordenadoria de Infraestrutura, código FG-02, do IFRS – Campus de Ibirubá, na ausência do 
Titular, servidor MILTON JOSÉ BUSNELLO, matrícula Siape nº 1893291. 
  
 
Profª. Migacir Trindade Duarte Flôres 
Diretora Geral "Pro tempore” 
 
 
 
 
 
 
 
 
 
 
 
 
 
 
 
 
 
 
 
 
 
 
 
 
 
 
 
 
 
 
 
 
 
 
 
 
 
      
13 
 
 
II - ORDENS DE SERVIÇO 
 
 
 
III – CONCESSÃO DE DIÁRIAS 
 
Período Solicitado : 01/12/2012   à   01/01/2013 
Nome:  IVAN PAULO CANAL 
Função:   
Período da Viagem:  17/12/2012    à   18/12/2012 
Destino:  Ibirubá / Osório / Ibirubá 
Número da Requisição:  003496/12 
Valor das Diárias (R$):  237,86 
Objetivo:  Nacional - Convocação 
Descrição:  Reunião do GT-CPPD no Câmpus Osório. 
______________________________________________________________________ 
Nome:  JOVANI JOSE ALBERTI 
Função:  CD-0004 
Período da Viagem:  16/12/2012    à   17/12/2012 
Destino:  Ibirubá / Bento Gonçalves / Ibirubá 
Número da Requisição:  003573/12 
Valor das Diárias (R$):  303,43 
Objetivo:  Nacional - Convocação 
Descrição:  Convocação do Pró Reitor Administrativo e Reunião DAP. 
______________________________________________________________________ 
Nome:  ADEMIR ANDRE DAMASIO 
Função:   
Período da Viagem:  04/12/2012    à   04/12/2012 
Destino:  Bento Gonçalves / Porto Alegre / Bento Gonçalves 
Número da Requisição:  003425/12 
Valor das Diárias (R$):  92,38 
Objetivo:  Nacional - A Serviço 
Descrição:  Conduzir a reitora cláudia ao aeroporto Salgado Filho de onde embarcará para 
reunião de Pronatec em Brasília. 
______________________________________________________________________ 
Nome:  ADEMIR ANDRE DAMASIO 
Função:   
Período da Viagem:  06/12/2012    à   06/12/2012 
Destino:  Bento Gonçalves / Porto Alegre / Bento Gonçalves 
Número da Requisição:  003424/12 
Valor das Diárias (R$):  92,38 
Objetivo:  Nacional - A Serviço 
Descrição:  Buscar a reitora no aeroporto. A mesma estará retornando de compromisso em 
Brasília. 
14 
 
 
______________________________________________________________________ 
Nome:  ADEMIR ANDRE DAMASIO 
Função:   
Período da Viagem:  11/12/2012    à   11/12/2012 
Destino:  Bento Gonçalves / Porto Alegre / Bento Gonçalves 
Número da Requisição:  003373/12 
Valor das Diárias (R$):  92,38 
Objetivo:  Nacional - A Serviço 
Descrição:  Conduzir a reitora ao aeroporto Salgado Filho de onde embarcará para Brasília 
para participação de reunião do Conif. 
______________________________________________________________________ 
Nome:  ADEMIR ANDRE DAMASIO 
Função:   
Período da Viagem:  14/12/2012    à   14/12/2012 
Destino:  Bento Gonçalves / Porto Alegre / Bento Gonçalves 
Número da Requisição:  003374/12 
Valor das Diárias (R$):  92,38 
Objetivo:  Nacional - A Serviço 
Descrição:  Buscar a Reitora Cláudia no aeroporto Salgado Filho, de onde estará 
retornando de Brasília. 
______________________________________________________________________ 
Nome:  ADEMIR ANDRE DAMASIO 
Função:   
Período da Viagem:  18/12/2012    à   19/12/2012 
Destino:  Bento Gonçalves / Osório / Porto Alegre / Bento Gonçalves 
Número da Requisição:  003459/12 
Valor das Diárias (R$):  290,96 
Objetivo:  Nacional - A Serviço 
Descrição:  Conduzir a Reitora, Cláudia S.Soares de Souza, a servidora margarete Quevedo 
e O Pró-reitor de Desev. Institucional, Augusto Horiguti aos Campus Osório e Porto Alegre, 
onde ocorrerá reuniões do Conselho Superior e Colégio de Dirigentes. 
______________________________________________________________________ 
Nome:  MIGACIR TRINDADE DUARTE FLORES 
Função:  CD-0003 
Período da Viagem:  06/12/2012    à   07/12/2012 
Destino:  Ibirubá / Bento Gonçalves / Ibirubá 
Número da Requisição:  003449/12 
Valor das Diárias (R$):  289,61 
Objetivo:  Nacional - A Serviço 
Descrição:  Atender a convocação para reunião do Conselho de Dirigentes e levar 
servidores para capacitação 
______________________________________________________________________ 
Nome:  CLAUDIA SCHIEDECK SOARES DE SOUZA 
Função:  CD-0001 
Período da Viagem:  18/12/2012    à   19/12/2012 
15 
 
 
Destino:  Bento Gonçalves / Osório / Porto Alegre / Bento Gonçalves 
Número da Requisição:  003470/12 
Valor das Diárias (R$):  428,66 
Objetivo:  Nacional - A Serviço 
Descrição:  Presidenciar as reuniões do Conselho Superior e Colégio de Dirigentes que 
ocorrerão respectivamente nos Câmpus Osório e Porto Alegre. 
______________________________________________________________________ 
Nome:  MARGARIDA PRESTES DE SOUZA 
Função:  CD-0004 
Período da Viagem:  12/12/2012    à   13/12/2012 
Destino:  Bento Gonçalves / Sertão / Bento Gonçalves 
Número da Requisição:  003472/12 
Valor das Diárias (R$):  289,61 
Objetivo:  Nacional - A Serviço 
Descrição:  Reunião de Processo de Sindicância de servidora do Câmpus Sertão. 
______________________________________________________________________ 
Nome:  JORGE RODRIGO MASSING 
Função:   
Período da Viagem:  06/12/2012    à   07/12/2012 
Destino:  Santa Maria / Farroupilha / Santa Maria 
Número da Requisição:  003309/12 
Valor das Diárias (R$):  237,86 
Objetivo:  Nacional - Encontro/Seminário 
Descrição:  Participar da tecnofeira ministrando a palestra na área de energia eólica 
______________________________________________________________________ 
Nome:  ALEXANDRE VASCONCELOS LEITE 
Função:  CD-0003 
Período da Viagem:  14/12/2012    à   16/12/2012 
Destino:  Bento Gonçalves / Cachoeira do Sul / Santo Antônio da Patrulha / Porto Alegre 
/ Bento Gonçalves 
Número da Requisição:  003191/12 
Valor das Diárias (R$):  578,38 
Objetivo:  Nacional - A Serviço 
Descrição:  Visita aos Pólos de Santo Antônio da Patrulha, São Lourenço, Cruz Alta e 
Cachoeira do Sul. 
______________________________________________________________________ 
Nome:  ROGERIO FOSCHIERA 
Função:   
Período da Viagem:  10/12/2012    à   11/12/2012 
Destino:  Porto Alegre / Curitiba / Porto Alegre 
Número da Requisição:  003230/12 
Valor das Diárias (R$):  316,47 
Objetivo:  Nacional - Encontro/Seminário 
Descrição:  Participar do III Encontro de Setores Sistêmicos de Assistência Estudantil da 
Região Sul. A pró reitoria de ensino do IFRS recomendou a todos campus que participassem. 
16 
 
 
______________________________________________________________________ 
Nome:  VIVIAN TREICHEL GIESEL 
Função:   
Período da Viagem:  05/12/2012    à   06/12/2012 
Destino:  Feliz / Bento Gonçalves / Feliz 
Número da Requisição:  003304/12 
Valor das Diárias (R$):  198,81 
Objetivo:  Nacional - Convocação 
Descrição:  Convocação PROPI. 
______________________________________________________________________ 
Nome:  MARCELO JUAREZ VIZZOTTO 
Função:   
Período da Viagem:  04/12/2012    à   05/12/2012 
Destino:  Bento Gonçalves / Porto Alegre / Bento Gonçalves 
Número da Requisição:  003301/12 
Valor das Diárias (R$):  290,96 
Objetivo:  Nacional - A Serviço 
Descrição:  Reunião com a CGU onde serão tratados diversos temas, conforme email em 
anexo. 
______________________________________________________________________ 
Nome:  LUIS CLAUDIO GUBERT 
Função:   
Período da Viagem:  04/12/2012    à   04/12/2012 
Destino:  Ibirubá / Porto Alegre / Ibirubá 
Número da Requisição:  003370/12 
Valor das Diárias (R$):  92,38 
Objetivo:  Nacional - Convocação 
Descrição:  Reunião dos Coordenadores de Desenvolvimento Institucional do IFRS, 
conforme convocação. 
______________________________________________________________________ 
Nome:  MARINEZ SILVEIRA DE OLIVEIRA 
Função:   
Período da Viagem:  06/12/2012    à   07/12/2012 
Destino:  Feliz / Bento Gonçalves / Feliz 
Número da Requisição:  003381/12 
Valor das Diárias (R$):  237,86 
Objetivo:  Nacional - Convocação 
Descrição:  Treinamento de cadastramento de novos servidores, no DGP da Reitoria. 
______________________________________________________________________ 
Nome:  MAGALI TERESINHA DA SILVA 
Função:   
Período da Viagem:  06/12/2012    à   07/12/2012 
Destino:  Ibirubá / Bento Gonçalves / Ibirubá 
Número da Requisição:  003382/12 
Valor das Diárias (R$):  237,86 
17 
 
 
Objetivo:  Nacional - A Serviço 
Descrição:  Treinamento sobre financeiro a ser realizado na Reitoria do IFRS nos dias 06 e 
07 de dezembro de 2012. 
______________________________________________________________________ 
Nome:  JOAO HENRIQUE OLIVEIRA MACHADO 
Função:   
Período da Viagem:  18/12/2012    à   20/12/2012 
Destino:  Bento Gonçalves / Porto Alegre / Bento Gonçalves 
Número da Requisição:  003390/12 
Valor das Diárias (R$):  489,55 
Objetivo:  Nacional - A Serviço 
Descrição:  Acompanhar reunião ordinária do Consup, em Osório, acompanhar reunião de 
CD, em Porto Alegre e participar da reunião geral de comunicadores, em Porto Alegre. 
______________________________________________________________________ 
Nome:  BEN HUR COSTA DE CAMPOS 
Função:   
Período da Viagem:  05/12/2012    à   06/12/2012 
Destino:  Ibirubá / Bento Gonçalves / Ibirubá 
Número da Requisição:  003389/12 
Valor das Diárias (R$):  237,86 
Objetivo:  Nacional - A Serviço 
Descrição:  Participar da Reunião do COPI, nos dias 05 a 06 de dezembro de 2012. 
______________________________________________________________________ 
Nome:  LUIS CARLOS CAVALHEIRO DA SILVA 
Função:  CD-0003 
Período da Viagem:  06/12/2012    à   07/12/2012 
Destino:  Feliz / Bento Gonçalves / Feliz 
Número da Requisição:  003397/12 
Valor das Diárias (R$):  289,61 
Objetivo:  Nacional - Convocação 
Descrição:  Participar da reunião do Colégio de Dirigentes na Reitoria. 
______________________________________________________________________ 
Nome:  LIANA PAULA CAVALETT 
Função:   
Período da Viagem:  06/12/2012    à   06/12/2012 
Destino:  Feliz / Bento Gonçalves / Feliz 
Número da Requisição:  003398/12 
Valor das Diárias (R$):  74,68 
Objetivo:  Nacional - Convocação 
Descrição:  Convocação para participar da reunião de Registros Escolares na Reitoria. 
______________________________________________________________________ 
Nome:  CLAUDIA SCHIEDECK SOARES DE SOUZA 
Função:  CD-0001 
Período da Viagem:  11/12/2012    à   14/12/2012 
Destino:  Bento Gonçalves / Porto Alegre / Brasília / Porto Alegre / Bento Gonçalves 
18 
 
 
Número da Requisição:  003302/12-1C 
Valor das Diárias (R$):  1163,58 
Objetivo:  Nacional - A Serviço 
Descrição:  Reunião Ordinária do Conif. Alteração na agenda, para estudos de propostas a 
serem encaminhadas pelo Conif. 
______________________________________________________________________ 
Nome:  CLAUDIA SCHIEDECK SOARES DE SOUZA 
Função:  CD-0001 
Período da Viagem:  04/12/2012    à   06/12/2012 
Destino:  Bento Gonçalves / Porto Alegre / Brasília / Porto Alegre / Bento Gonçalves 
Número da Requisição:  003321/12-1C 
Valor das Diárias (R$):  856,30 
Objetivo:  Nacional - Convocação 
Descrição:  Evento: ENCONTRO REDES DE EDUCAÇÃO PROFISSIONAL E 
TECNOLÓGICA E DEMANDANTES DA BOLSA-FORMAÇÃO PRONATEC e Reunião 
da Comissão Permanente de Planejamento e Gestão CPPG no dia 06. 
______________________________________________________________________ 
Nome:  RODRIGO SYCHOCKI DA SILVA 
Função:   
Período da Viagem:  05/12/2012    à   06/12/2012 
Destino:  Caxias do Sul / Feliz / Caxias do Sul 
Número da Requisição:  003405/12 
Valor das Diárias (R$):  237,86 
Objetivo:  Nacional - A Serviço 
Descrição:  Substituição das aulas de matemática no técnico integrado em informática do 
Campus Feliz em razão do afastamento do professor titular da disciplina. 
______________________________________________________________________ 
Nome:  RODRIGO SYCHOCKI DA SILVA 
Função:   
Período da Viagem:  12/12/2012    à   13/12/2012 
Destino:  Caxias do Sul / Feliz / Caxias do Sul 
Número da Requisição:  003407/12 
Valor das Diárias (R$):  237,86 
Objetivo:  Nacional - A Serviço 
Descrição:  Substituição das aulas de matemática no técnico integrado em informática do 
Campus Feliz em razão do afastamento do professor titular da disciplina. 
______________________________________________________________________ 
Nome:  RODRIGO SYCHOCKI DA SILVA 
Função:   
Período da Viagem:  19/12/2012    à   20/12/2012 
Destino:  Caxias do Sul / Feliz / Caxias do Sul 
Número da Requisição:  003408/12 
Valor das Diárias (R$):  237,86 
Objetivo:  Nacional - A Serviço 
19 
 
 
Descrição:  Substituição das aulas de matemática no técnico integrado em informática do 
Campus Feliz em razão do afastamento do professor titular da disciplina. 
______________________________________________________________________ 
Nome:  LAURA GOTLEIB DA ROSA 
Função:   
Período da Viagem:  06/12/2012    à   06/12/2012 
Destino:  Ibirubá / Bento Gonçalves / Ibirubá 
Número da Requisição:  003418/12 
Valor das Diárias (R$):  74,68 
Objetivo:  Nacional - A Serviço 
Descrição:  Participar da 9° Reunião Ordinária do Comitê de Tecnologia da Informação, 
atendendo a convocação da Direção de Tecnologia de Informação. 
______________________________________________________________________ 
Nome:  CATIA ELI GEMELLI 
Função:   
Período da Viagem:  09/12/2012    à   10/12/2012 
Destino:  Osório / Bento Gonçalves / Osório 
Número da Requisição:  003430/12 
Valor das Diárias (R$):  251,68 
Objetivo:  Nacional - Convocação 
Descrição:  Atender intimação para depoimento em sindicância de servidor do campus 
Sertão. 
______________________________________________________________________ 
Nome:  MARGARETE DE QUEVEDO 
Função:   
Período da Viagem:  18/12/2012    à   19/12/2012 
Destino:  Bento Gonçalves / Osório / Porto Alegre / Bento Gonçalves 
Número da Requisição:  003442/12 
Valor das Diárias (R$):  290,96 
Objetivo:  Nacional - Convocação 
Descrição:  Secretariar as reuniões do Conselho Superior e Colégio de Dirigentes que serão 
respectivamente realizadas nos Campus Osório e Porto Alegre. 
______________________________________________________________________ 
Nome:  MIGACIR TRINDADE DUARTE FLORES 
Função:  CD-0003 
Período da Viagem:  18/12/2012    à   19/12/2012 
Destino:  Ibirubá / Osório / Ibirubá 
Número da Requisição:  003450/12 
Valor das Diárias (R$):  289,61 
Objetivo:  Nacional - A Serviço 
Descrição:  Participação na reunião do Consup no Campus Osório e reunião do Conselho 
de Dirigentes 
______________________________________________________________________ 
 
 
20 
 
 
Nome:  JOSE EDSON AZEVEDO DA SILVA 
Função:   
Período da Viagem:  17/12/2012    à   18/12/2012 
Destino:  Farroupilha / Osório / Farroupilha 
Número da Requisição:  003458/12 
Valor das Diárias (R$):  237,86 
Objetivo:  Nacional - Encontro/Seminário 
Descrição:  O servidor estará participando de uma reunião para elaboração de um 
regimento da CPPD 
______________________________________________________________________ 
Nome:  EDUARDO GIROTTO 
Função:   
Período da Viagem:  10/12/2012    à   10/12/2012 
Destino:  Ibirubá / Porto Alegre / Ibirubá 
Número da Requisição:  003477/12 
Valor das Diárias (R$):  92,38 
Objetivo:  Nacional - A Serviço 
Descrição:  Participação em reunião referente a pactuação de vagas ofertadas via 
PRONATEC Campo. 
______________________________________________________________________ 
Nome:  JOAO HELVIO RIGHI DE OLIVEIRA 
Função:  CD-0003 
Período da Viagem:  11/12/2012    à   13/12/2012 
Destino:  Santa Maria / Feliz / Santa Maria 
Número da Requisição:  003482/12 
Valor das Diárias (R$):  487,30 
Objetivo:  Nacional - A Serviço 
Descrição:  Participar da Comissão de Processo Administrativo Disciplinar, conforme 
portaria 069/2012 de 16 de outubro de 2012 do Campus Feliz. 
______________________________________________________________________ 
Nome:  LEANDRO CERVO 
Função:   
Período da Viagem:  11/12/2012    à   13/12/2012 
Destino:  Santa Maria / Feliz / Santa Maria 
Número da Requisição:  003483/12 
Valor das Diárias (R$):  401,05 
Objetivo:  Nacional - A Serviço 
Descrição:  Participar da Comissão de Processo Administrativo Disciplinar, conforme 
portaria 069/2012 de 16 de outubro de 2012 do Campus Feliz. 
______________________________________________________________________ 
Nome:  UBIRATAN RONALDO FREITAS 
Função:   
Período da Viagem:  11/12/2012    à   13/12/2012 
Destino:  Santa Maria / Feliz / Santa Maria 
Número da Requisição:  003491/12 
21 
 
 
Valor das Diárias (R$):  401,05 
Objetivo:  Nacional - A Serviço 
Descrição:  Participar da Comissão de Processo Administrativo Disciplinar, conforme 
portaria 069/2012 de 16 de outubro de 2012 do Campus Feliz. 
______________________________________________________________________ 
Nome:  ANDRE MAREK 
Função:   
Período da Viagem:  06/12/2012    à   07/12/2012 
Destino:  Ibirubá / Bento Gonçalves / Ibirubá 
Número da Requisição:  003507/12 
Valor das Diárias (R$):  237,86 
Objetivo:  Nacional - A Serviço 
Descrição:  Treinamento inicial na Reitoria sobre Financeiro e Almoxarifado. 
______________________________________________________________________ 
Nome:  FERNANDO DE OLIVEIRA LEAO 
Função:   
Período da Viagem:  19/12/2012    à   20/12/2012 
Destino:  Ibirubá / Porto Alegre / Ibirubá 
Número da Requisição:  003527/12 
Valor das Diárias (R$):  385,96 
Objetivo:  Nacional - Convocação 
Descrição:  Encontro dos comunicadores do IFRS. 
______________________________________________________________________ 
Nome:  LUIS CARLOS CAVALHEIRO DA SILVA 
Função:  CD-0002 
Período da Viagem:  10/12/2012    à   10/12/2012 
Destino:  Feliz / Bento Gonçalves / Feliz 
Número da Requisição:  003512/12 
Valor das Diárias (R$):  91,93 
Objetivo:  Nacional - A Serviço 
Descrição:  Presidir Comissão de sindicância referente a Processo 23419.001608-2012-97 
______________________________________________________________________ 
Nome:  LUIS CARLOS CAVALHEIRO DA SILVA 
Função:  CD-0002 
Período da Viagem:  12/12/2012    à   12/12/2012 
Destino:  Feliz / Bento Gonçalves / Feliz 
Número da Requisição:  003514/12 
Valor das Diárias (R$):  91,93 
Objetivo:  Nacional - A Serviço 
Descrição:  Dar continuidade ás oitivas de testemunhas e acusado no processo de 
sindicância nº 23419001608-2012-97 
______________________________________________________________________ 
Nome:  LUANA MARIS MORAVSKI DAPPER 
Função:   
Período da Viagem:  06/12/2012    à   07/12/2012 
22 
 
 
Destino:  Ibirubá / Bento Gonçalves / Ibirubá 
Número da Requisição:  003562/12 
Valor das Diárias (R$):  237,86 
Objetivo:  Nacional - A Serviço 
Descrição:  Curso sobre Siape Folha e Siape Cadastro na Reitoria do IFRS. 
______________________________________________________________________ 
Nome:  DEISE INARA CREMONINI DAGNESE 
Função:   
Período da Viagem:  19/12/2012    à   20/12/2012 
Destino:  Farroupilha / Porto Alegre / Farroupilha 
Número da Requisição:  003546/12 
Valor das Diárias (R$):  290,96 
Objetivo:  Nacional - Convocação 
Descrição:  Participar do encontro de comunicadores do IFRS 
______________________________________________________________________ 
Nome:  MELISSA DIETRICH DA ROSA 
Função:  CD-0002 
Período da Viagem:  18/12/2012    à   18/12/2012 
Destino:  Farroupilha / Osório / Farroupilha 
Número da Requisição:  003576/12 
Valor das Diárias (R$):  91,93 
Objetivo:  Nacional - Convocação 
Descrição:  Participar da 6ª reunião extarordinária do CONSUP 
______________________________________________________________________ 
Nome:  MELISSA DIETRICH DA ROSA 
Função:  CD-0002 
Período da Viagem:  19/12/2012    à   19/12/2012 
Destino:  Farroupilha / Porto Alegre / Farroupilha 
Número da Requisição:  003583/12 
Valor das Diárias (R$):  113,08 
Objetivo:  Nacional - Convocação 
Descrição:  Participara da reunião do colégio de dirigentes em Porto Alegre 
______________________________________________________________________ 
Nome:  JOANA HELENA PALOSCHI 
Função:   
Período da Viagem:  19/12/2012    à   19/12/2012 
Destino:  Feliz / Porto Alegre / Feliz 
Número da Requisição:  003609/12 
Valor das Diárias (R$):  92,38 
Objetivo:  Nacional - A Serviço 
Descrição:  Reunião da Assessoria de Comunicação do IFRS no Campus POrto Alegre. 
______________________________________________________________________ 
Nome:  RODRIGO SYCHOCKI DA SILVA 
Função:   
Período da Viagem:  15/12/2012    à   15/12/2012 
23 
 
 
Destino:  Caxias do Sul / Feliz / Caxias do Sul 
Número da Requisição:  003611/12 
Valor das Diárias (R$):  88,50 
Objetivo:  Nacional - A Serviço 
Descrição:  Substituição das aulas de matemática do ensino médio do Campus Feliz. 
______________________________________________________________________ 
Nome:  MARGARIDA PRESTES DE SOUZA 
Função:  CD-0004 
Período da Viagem:  18/12/2012    à   18/12/2012 
Destino:  Bento Gonçalves / Sertão / Bento Gonçalves 
Número da Requisição:  003560/12 
Valor das Diárias (R$):  91,93 
Objetivo:  Nacional - A Serviço 
Descrição:  Participar como Presidente da Comissão de Sindicância, das oitivas no Cãmpus 
Sertão. 
______________________________________________________________________ 
Nome:  MAGALI TERESINHA DA SILVA 
Função:   
Período da Viagem:  16/12/2012    à   17/12/2012 
Destino:  Ibirubá / Bento Gonçalves / Ibirubá 
Número da Requisição:  003563/12 
Valor das Diárias (R$):  251,68 
Objetivo:  Nacional - Convocação 
Descrição:  Convocação do Pró-Reitor de Administração do IFRS (17/12/12). Reunião com 
a Pró-Reitoria Adjunta de Administração do IFRS (18/12/12). 
______________________________________________________________________ 
Nome:  ANDRE MAREK 
Função:   
Período da Viagem:  16/12/2012    à   17/12/2012 
Destino:  Ibirubá / Bento Gonçalves / Ibirubá 
Número da Requisição:  003564/12 
Valor das Diárias (R$):  251,68 
Objetivo:  Nacional - Convocação 
Descrição:  Convocação do Pró-Reitor de Administração do IFRS (17/12/12). Reunião com 
a Pró-Reitoria Adjunta de Administração do IFRS (18/12/12). 
______________________________________________________________________ 
Nome:  NUBIA MARTA LAUX 
Função:   
Período da Viagem:  18/12/2012    à   18/12/2012 
Destino:  Feliz / Osório / Feliz 
Número da Requisição:  003610/12 
Valor das Diárias (R$):  74,68 
Objetivo:  Nacional - Convocação 
Descrição:  Participar da reunião do Conselho Superior (CONSUP) no Campus Osório 
como representante do Campus Feliz. 
24 
 
 
______________________________________________________________________ 
Nome:  MARCOS PAULO LUDWIG 
Função:   
Período da Viagem:  18/12/2012    à   18/12/2012 
Destino:  Ibirubá / Osório / Ibirubá 
Número da Requisição:  003578/12 
Valor das Diárias (R$):  74,68 
Objetivo:  Nacional - Convocação 
Descrição:  Atender a convocação para participar da Reunião do CONSUP. 
______________________________________________________________________ 
Nome:  TIAGO DE PAULO LEAO 
Função:   
Período da Viagem:  18/12/2012    à   18/12/2012 
Destino:  Ibirubá / Osório / Ibirubá 
Número da Requisição:  003581/12 
Valor das Diárias (R$):  74,68 
Objetivo:  Nacional - A Serviço 
Descrição:  Participar da reunião do Consup a ser realizada no Campus Osório na data de 
18/12/2012 
______________________________________________________________________ 
Nome:  RAQUEL LORENSINI ALBERTI 
Função:   
Período da Viagem:  19/12/2012    à   19/12/2012 
Destino:  Ibirubá / Porto Alegre / Ibirubá 
Número da Requisição:  003591/12 
Valor das Diárias (R$):  92,38 
Objetivo:  Nacional - A Serviço 
Descrição:  Reunião FAURGS referente ao convênio Fecoergs - Ocergs. 
 
 
 
 
 
 
 
 
 
 
 
 
 
 
 
 
25 
 
 
IV - FÉRIAS 
 
 
MATRÍCULA    NOME DO SERVIDOR       PERÍODO DE FÉRIAS 
26419-1893521 ADRIANA PUGEN ROSSI 02JAN2013 31JAN2013 
26419-1828149 ALESSANDRA MEDIANEIRA VARGAS DA SIL 14JAN2013 25JAN2013 
26419-1828149 ALESSANDRA MEDIANEIRA VARGAS DA SIL 13FEV2013 02MAR2013 
26419-1795569 ALEXANDRE URBANO HOFFMANN 01MAR2012 30MAR2012 
26419-1802216 ALINE TERRA SILVEIRA 02JAN2013 31JAN2013 
26419-1804751 ANDRE RICARDO DIERINGS 21JAN2012 08FEV2012 
26419-1804751 ANDRE RICARDO DIERINGS 16JUL2012 20JUL2012 
26419-1804751 ANDRE RICARDO DIERINGS 31DEZ2012 20JAN2013 
26419-1868063 ANGELO MOZART MEDEIROS DE OLIVEIRA 18JUL2012 27JUL2012 
26419-1868063 ANGELO MOZART MEDEIROS DE OLIVEIRA 02JAN2013 05FEV2013 
26419-1819147 AURELIO RICARDO BATU MAICA 02JAN2012 31JAN2012 
26419-1796124 BEN HUR COSTA DE CAMPOS 15JAN2012 12FEV2012 
26419-1796124 BEN HUR COSTA DE CAMPOS 16JUL2012 20JUL2012 
26419-1796124 BEN HUR COSTA DE CAMPOS 19DEZ2012 29DEZ2012 
26419-1761366 CLAUDIA REGINA COSTA PACHECO 02JAN2012 15FEV2012 
26419-1893341 CLAUDIOMIR FEUSTLER RODRIGUES DE SI 02JAN2013 10FEV2013 
26419-1893341 CLAUDIOMIR FEUSTLER RODRIGUES DE SI 22JUL2013 26JUL2013 
26419-1823868 DAIANE TOIGO TRENTIN 21JAN2012 13FEV2012 
26419-1823868 DAIANE TOIGO TRENTIN 16JUL2012 20JUL2012 
26419-1823868 DAIANE TOIGO TRENTIN 02JAN2013 17JAN2013 
26419-1804782 EDIMAR MANICA 21JAN2012 10FEV2012 
26419-1804782 EDIMAR MANICA 16JUL2012 20JUL2012 
26419-1804782 EDIMAR MANICA 31DEZ2012 18JAN2013 
26419-1904198 EDIMILSON ANTONIO BRAVO PORTO 02JAN2013 10FEV2013 
26419-1904198 EDIMILSON ANTONIO BRAVO PORTO 22JUL2013 26JUL2013 
26419-1818514 EDUARDO FERNANDES ANTUNES 05MAR2012 09MAR2012 
26419-1818514 EDUARDO FERNANDES ANTUNES 02JAN2013 26JAN2013 
26419-1893215 EDUARDO GIROTTO 02JAN2013 10FEV2013 
26419-1893215 EDUARDO GIROTTO 22JUL2013 26JUL2013 
26419-1870308 EDUARDO MARQUES DE CAMARGO 23AGO2012 06SET2012 
26419-1870308 EDUARDO MARQUES DE CAMARGO 02JAN2013 16JAN2013 
26419-1796015 EDUARDO MATOS MONTEZANO 23JAN2012 10FEV2012 
26419-1796015 EDUARDO MATOS MONTEZANO 16JUL2012 20JUL2012 
26 
 
 
26419-1796015 EDUARDO MATOS MONTEZANO 21DEZ2012 10JAN2013 
26419-1686749 ELIEZER JOSE PEGORARO 01JUL2012 21JUL2012 
26419-1686749 ELIEZER JOSE PEGORARO 22JUL2012 26JUL2012 
26419-1686749 ELIEZER JOSE PEGORARO 02JAN2013 20JAN2013 
26419-1823897 FERNANDA SCHNEIDER 06MAR2012 21MAR2012 
26419-1823897 FERNANDA SCHNEIDER 13JUL2012 29JUL2012 
26419-1823897 FERNANDA SCHNEIDER 20DEZ2012 31DEZ2012 
26419-1796099 FERNANDO BELTRAME 21JAN2012 10FEV2012 
26419-1796099 FERNANDO BELTRAME 16JUL2012 20JUL2012 
26419-1796099 FERNANDO BELTRAME 31DEZ2012 18JAN2013 
26419-1819928 FLAVIO ROBERTO ANDARA 02JAN2013 10FEV2013 
26419-1819928 FLAVIO ROBERTO ANDARA 22JUL2013 26JUL2013 
26419-1703241 FRANCISCA BRUM TOLIO 08FEV2012 15FEV2012 
26419-1703241 FRANCISCA BRUM TOLIO 17JUL2012 31JUL2012 
26419-1703241 FRANCISCA BRUM TOLIO 03DEZ2012 24DEZ2012 
26419-2814410 GIACOMO GAI SOARES 16JUL2012 25JUL2012 
26419-2814410 GIACOMO GAI SOARES 02JAN2013 05FEV2013 
26419-0995602 JOVANI JOSE ALBERTI 14JAN2013 01FEV2013 
26419-0995602 JOVANI JOSE ALBERTI 22JUL2013 01AGO2013 
26419-1759468 JULIANO ELESBAO RATHKE 02JAN2012 31JAN2012 
26419-1759468 JULIANO ELESBAO RATHKE 13JUL2012 27JUL2012 
26419-1680548 LAURA GOTLEIB DA ROSA 01FEV2012 17FEV2012 
26419-1680548 LAURA GOTLEIB DA ROSA 02JUL2012 14JUL2012 
26419-1827893 LEANDRO ROGGIA 21JAN2012 10FEV2012 
26419-1827893 LEANDRO ROGGIA 16JUL2012 20JUL2012 
26419-1827893 LEANDRO ROGGIA 31DEZ2012 18JAN2013 
26419-1828061 LISIANE CEZAR DE OLIVEIRA 28JAN2012 10FEV2012 
26419-1828061 LISIANE CEZAR DE OLIVEIRA 16JUL2012 20JUL2012 
26419-1828061 LISIANE CEZAR DE OLIVEIRA 01DEZ2012 26DEZ2012 
26419-1894794 LUCIANO MACHADO CIRINO 02JAN2013 10FEV2013 
26419-1894794 LUCIANO MACHADO CIRINO 22JUL2013 26JUL2013 
26419-1781712 LUIS CLAUDIO GUBERT 21JAN2012 10FEV2012 
26419-1781712 LUIS CLAUDIO GUBERT 16JUL2012 20JUL2012 
26419-1781712 LUIS CLAUDIO GUBERT 31DEZ2012 18JAN2013 
26419-1835765 MAGALI TERESINHA DA SILVA 23JAN2012 03FEV2012 
26419-1835765 MAGALI TERESINHA DA SILVA 02MAI2012 14MAI2012 
26419-1835765 MAGALI TERESINHA DA SILVA 07JAN2013 11JAN2013 
27 
 
 
26419-1847670 MARCELO LIMA CALIXTO 02JAN2013 21JAN2013 
26419-1847670 MARCELO LIMA CALIXTO 22JUL2013 26JUL2013 
26419-1847670 MARCELO LIMA CALIXTO 23SET2013 12OUT2013 
26419-1645508 MARCOS PAULO LUDWIG 21JAN2012 08FEV2012 
26419-1645508 MARCOS PAULO LUDWIG 16JUL2012 20JUL2012 
26419-1645508 MARCOS PAULO LUDWIG 31DEZ2012 20JAN2013 
26419-1868081 MARIA INES SIMON 22JAN2013 08FEV2013 
26419-1868081 MARIA INES SIMON 22JUL2013 02AGO2013 
26419-1770350 MAURICIO LOPES LIMA 23JAN2012 03FEV2012 
26419-1770350 MAURICIO LOPES LIMA 02MAI2012 11MAI2012 
26419-1770350 MAURICIO LOPES LIMA 02JAN2013 09JAN2013 
26419-1899948 MELISSA HEBERLE 02JAN2013 10FEV2013 
26419-1899948 MELISSA HEBERLE 22JUL2013 26JUL2013 
26419-2104561 MIGACIR TRINDADE DUARTE FLORES 02JAN2012 20JAN2012 
26419-2104561 MIGACIR TRINDADE DUARTE FLORES 27FEV2012 05MAR2012 
26419-2104561 MIGACIR TRINDADE DUARTE FLORES 23JUL2012 27JUL2012 
26419-2104561 MIGACIR TRINDADE DUARTE FLORES 21SET2012 03OUT2012 
26419-1872360 MILENA SILVESTER QUADROS 16JUL2012 25JUL2012 
26419-1872360 MILENA SILVESTER QUADROS 02JAN2013 05FEV2013 
26419-1893291 MILTON JOSE BUSNELLO 02JAN2013 18JAN2013 
26419-1893291 MILTON JOSE BUSNELLO 22JUL2013 03AGO2013 
26419-1827598 MONICA GIACOMINI 16JUL2012 25JUL2012 
26419-1827598 MONICA GIACOMINI 02JAN2013 05FEV2013 
26419-1828165 MONIQUE SALETE LORENSON 09JAN2012 07FEV2012 
26419-1871589 PAULO ARTUR KONRAD 02JAN2013 31JAN2013 
26419-1853821 RAQUEL DALLA LANA CARDOSO 16JUL2012 25JUL2012 
26419-1853821 RAQUEL DALLA LANA CARDOSO 02JAN2013 05FEV2013 
26419-1306033 RAQUEL LORENSINI ALBERTI 02JAN2013 10FEV2013 
26419-1306033 RAQUEL LORENSINI ALBERTI 22JUL2013 26JUL2013 
26419-1812268 RAQUELI GIEHL ERTHAL 16ABR2012 25ABR2012 
26419-1812268 RAQUELI GIEHL ERTHAL 02JUL2012 11JUL2012 
26419-1812268 RAQUELI GIEHL ERTHAL 02OUT2012 11OUT2012 
26419-1823942 ROBSON RIGAO DA SILVA 23JAN2012 10FEV2012 
26419-1823942 ROBSON RIGAO DA SILVA 16JUL2012 20JUL2012 
26419-1823942 ROBSON RIGAO DA SILVA 31DEZ2012 20JAN2013 
26419-1828218 TIAGO DE PAULO LEAO 01MAR2012 30MAR2012 
26419-1858772 TIAGO JULIANO FERREIRA 16JUL2012 25JUL2012 
28 
 
 
26419-1858772 TIAGO JULIANO FERREIRA 02JAN2013 21JAN2013 
26419-1795569 ALEXANDRE URBANO HOFFMANN 02JAN2013 16JAN2013 
26419-1795569 ALEXANDRE URBANO HOFFMANN 03JUN2013 17JUN2013 
26419-1804751 ANDRE RICARDO DIERINGS 21JAN2013 09FEV2013 
26419-1804751 ANDRE RICARDO DIERINGS 22JUL2013 26JUL2013 
26419-1804751 ANDRE RICARDO DIERINGS 02JAN2014 21JAN2014 
26419-1819147 AURELIO RICARDO BATU MAICA 02JAN2013 31JAN2013 
26419-1796124 BEN HUR COSTA DE CAMPOS 02JAN2013 10FEV2013 
26419-1796124 BEN HUR COSTA DE CAMPOS 22JUL2013 26JUL2013 
26419-1761366 CLAUDIA REGINA COSTA PACHECO 02JAN2013 10FEV2013 
26419-1761366 CLAUDIA REGINA COSTA PACHECO 22JUL2013 26JUL2013 
26419-1823868 DAIANE TOIGO TRENTIN 18JAN2013 11FEV2013 
26419-1823868 DAIANE TOIGO TRENTIN 15JUL2013 19JUL2013 
26419-1823868 DAIANE TOIGO TRENTIN 02JAN2014 16JAN2014 
26419-1804782 EDIMAR MANICA 21JAN2013 08FEV2013 
26419-1804782 EDIMAR MANICA 22JUL2013 26JUL2013 
26419-1804782 EDIMAR MANICA 31DEZ2013 20JAN2014 
26419-1818514 EDUARDO FERNANDES ANTUNES 28JAN2013 01FEV2013 
26419-1818514 EDUARDO FERNANDES ANTUNES 02JAN2014 26JAN2014 
26419-1796015 EDUARDO MATOS MONTEZANO 11JAN2013 10FEV2013 
26419-1796015 EDUARDO MATOS MONTEZANO 22JUL2013 26JUL2013 
26419-1796015 EDUARDO MATOS MONTEZANO 02JAN2014 10JAN2014 
26419-1823897 FERNANDA SCHNEIDER 02JAN2013 10FEV2013 
26419-1823897 FERNANDA SCHNEIDER 22JUL2013 26JUL2013 
26419-1796099 FERNANDO BELTRAME 21JAN2013 08FEV2013 
26419-1796099 FERNANDO BELTRAME 22JUL2013 26JUL2013 
26419-1796099 FERNANDO BELTRAME 31DEZ2013 20JAN2014 
26419-1703241 FRANCISCA BRUM TOLIO 02JAN2013 10FEV2013 
26419-1703241 FRANCISCA BRUM TOLIO 22JUL2013 26JUL2013 
26419-1759468 JULIANO ELESBAO RATHKE 02JAN2013 10FEV2013 
26419-1759468 JULIANO ELESBAO RATHKE 22JUL2013 26JUL2013 
26419-1680548 LAURA GOTLEIB DA ROSA 21JAN2013 08FEV2013 
26419-1680548 LAURA GOTLEIB DA ROSA 03JUN2013 13JUN2013 
26419-1827893 LEANDRO ROGGIA 21JAN2013 08FEV2013 
26419-1827893 LEANDRO ROGGIA 22JUL2013 26JUL2013 
26419-1827893 LEANDRO ROGGIA 31DEZ2013 20JAN2014 
26419-1828061 LISIANE CEZAR DE OLIVEIRA 02JAN2013 10FEV2013 
29 
 
 
26419-1828061 LISIANE CEZAR DE OLIVEIRA 22JUL2013 26JUL2013 
26419-1781712 LUIS CLAUDIO GUBERT 19JAN2013 10FEV2013 
26419-1781712 LUIS CLAUDIO GUBERT 22JUL2013 26JUL2013 
26419-1781712 LUIS CLAUDIO GUBERT 02JAN2014 18JAN2014 
26419-1645508 MARCOS PAULO LUDWIG 21JAN2013 08FEV2013 
26419-1645508 MARCOS PAULO LUDWIG 22JUL2013 26JUL2013 
26419-1645508 MARCOS PAULO LUDWIG 02JAN2014 22JAN2014 
26419-2104561 MIGACIR TRINDADE DUARTE FLORES 21JAN2013 09FEV2013 
26419-1812268 RAQUELI GIEHL ERTHAL 01ABR2013 30ABR2013 
 
